%YAML 1.1
%TAG !u! tag:unity3d.com,2011:
--- !u!114 &11400000
MonoBehaviour:
  m_ObjectHideFlags: 0
  m_CorrespondingSourceObject: {fileID: 0}
  m_PrefabInstance: {fileID: 0}
  m_PrefabAsset: {fileID: 0}
  m_GameObject: {fileID: 0}
  m_Enabled: 1
  m_EditorHideFlags: 0
  m_Script: {fileID: 11500000, guid: 2261f94e3db9d6645bdad72db8ec30a0, type: 3}
  m_Name: New Game Level Music
  m_EditorClassIdentifier: Assembly-CSharp::GameLevelMusic
  m_Name: New Game Level Music
  m_EditorClassIdentifier: Assembly-CSharp::GameLevelMusic
