# 3ds Max Wavefront OBJ Exporter v0.97b - (c)2007 guruware
# File Created: 27.05.2020 18:32:16

mtllib BULB.mtl

#
# object Cylinder045
#

v  424.1940 33.2190 -103.6130
v  426.5464 38.4300 -109.3703
v  425.6072 36.3153 -110.9785
v  424.4976 33.8271 -111.6983
v  427.4945 40.5947 -104.3484
v  427.2018 39.9163 -107.0677
v  426.8983 39.3083 -98.9823
v  427.3890 40.3836 -101.5403
v  425.0367 35.1726 -95.7831
v  426.0813 37.4985 -96.9828
v  422.7808 30.1228 -96.2475
v  423.8904 32.6110 -95.5277
v  421.1862 26.5218 -100.1583
v  421.8417 28.0081 -97.8557
v  420.9990 26.0545 -105.6857
v  420.8936 25.8434 -102.8776
v  422.3068 28.9396 -110.2431
v  421.4898 27.1298 -108.2437
v  423.3514 31.2655 -111.4429
v  426.4843 35.9231 -110.9751
v  425.3748 33.4349 -111.6949
v  427.4235 38.0379 -109.3668
v  428.0789 39.5241 -107.0642
v  428.3716 40.2026 -104.3449
v  428.2662 39.9914 -101.5369
v  427.7754 38.9161 -98.9789
v  426.9584 37.1064 -96.9794
v  425.9138 34.7804 -95.7796
v  424.7676 32.2189 -95.5242
v  423.6580 29.7307 -96.2440
v  422.7188 27.6159 -97.8523
v  422.0634 26.1297 -100.1549
v  421.7707 25.4512 -102.8742
v  421.8761 25.6624 -105.6822
v  422.3669 26.7377 -108.2402
v  423.1839 28.5474 -110.2397
v  424.2285 30.8734 -111.4395
v  425.0712 32.8269 -103.6096
# 38 vertices

vn 0.0000 -1.0000 -0.0000
vn 1.0000 0.0000 0.0000
vn 0.9397 0.0000 -0.3420
vn 0.7660 0.0000 -0.6428
vn 0.5000 0.0000 -0.8660
vn 0.1736 0.0000 -0.9848
vn -0.1736 0.0000 -0.9848
vn -0.5000 0.0000 -0.8660
vn -0.7660 0.0000 -0.6428
vn -0.9397 0.0000 -0.3420
vn -1.0000 0.0000 -0.0000
vn -0.9397 0.0000 0.3420
vn -0.7660 0.0000 0.6428
vn -0.5000 0.0000 0.8660
vn -0.1736 0.0000 0.9848
vn 0.1736 0.0000 0.9848
vn 0.5000 0.0000 0.8660
vn 0.7660 0.0000 0.6428
vn 0.9397 0.0000 0.3420
vn 0.0000 1.0000 -0.0000
# 20 vertex normals

vt 0.5000 0.0000 0.0000
vt 0.8611 0.0000 0.0000
vt 0.8056 0.0000 0.0000
vt 0.7500 0.0000 0.0000
vt 0.9722 0.0000 0.0000
vt 0.9167 0.0000 0.0000
vt 0.0833 0.0000 0.0000
vt 0.0278 0.0000 0.0000
vt -0.0278 0.0000 0.0000
vt 0.1944 0.0000 0.0000
vt 0.1389 0.0000 0.0000
vt 0.3056 0.0000 0.0000
vt 0.2500 0.0000 0.0000
vt 0.4167 0.0000 0.0000
vt 0.3611 0.0000 0.0000
vt 0.5278 0.0000 0.0000
vt 0.4722 0.0000 0.0000
vt 0.6389 0.0000 0.0000
vt 0.5833 0.0000 0.0000
vt 0.6944 0.0000 0.0000
vt 0.8056 1.0000 0.0000
vt 0.7500 1.0000 0.0000
vt 0.8611 1.0000 0.0000
vt 0.9167 1.0000 0.0000
vt 0.9722 1.0000 0.0000
vt 0.0278 1.0000 0.0000
vt -0.0278 1.0000 0.0000
vt 0.0833 1.0000 0.0000
vt 0.1389 1.0000 0.0000
vt 0.1944 1.0000 0.0000
vt 0.2500 1.0000 0.0000
vt 0.3056 1.0000 0.0000
vt 0.3611 1.0000 0.0000
vt 0.4167 1.0000 0.0000
vt 0.4722 1.0000 0.0000
vt 0.5278 1.0000 0.0000
vt 0.5833 1.0000 0.0000
vt 0.6389 1.0000 0.0000
vt 0.6944 1.0000 0.0000
vt 0.5000 1.0000 0.0000
vt -0.0197 1.0000 0.0000
# 41 texture coords

o Cylinder045
g Cylinder045
usemtl wire_115115115
s off
f 1/1/1 2/2/1 3/3/1 4/4/1 
f 1/1/1 5/5/1 6/6/1 2/2/1 
f 1/1/1 7/7/1 8/8/1 5/9/1 
f 1/1/1 9/10/1 10/11/1 7/7/1 
f 1/1/1 11/12/1 12/13/1 9/10/1 
f 1/1/1 13/14/1 14/15/1 11/12/1 
f 1/1/1 15/16/1 16/17/1 13/14/1 
f 1/1/1 17/18/1 18/19/1 15/16/1 
f 1/1/1 4/4/1 19/20/1 17/18/1 
f 4/4/2 3/3/3 20/21/3 21/22/2 
f 3/3/3 2/2/4 22/23/4 20/21/3 
f 2/2/4 6/6/5 23/24/5 22/23/4 
f 6/6/5 5/5/6 24/25/6 23/24/5 
f 5/9/6 8/8/7 25/26/7 24/27/6 
f 8/8/7 7/7/8 26/28/8 25/26/7 
f 7/7/8 10/11/9 27/29/9 26/28/8 
f 10/11/9 9/10/10 28/30/10 27/29/9 
f 9/10/10 12/13/11 29/31/11 28/30/10 
f 12/13/11 11/12/12 30/32/12 29/31/11 
f 11/12/12 14/15/13 31/33/13 30/32/12 
f 14/15/13 13/14/14 32/34/14 31/33/13 
f 13/14/14 16/17/15 33/35/15 32/34/14 
f 16/17/15 15/16/16 34/36/16 33/35/15 
f 15/16/16 18/19/17 35/37/17 34/36/16 
f 18/19/17 17/18/18 36/38/18 35/37/17 
f 17/18/18 19/20/19 37/39/19 36/38/18 
f 19/20/19 4/4/2 21/22/2 37/39/19 
f 38/40/20 37/39/20 21/22/20 20/21/20 
f 38/40/20 20/21/20 22/23/20 23/24/20 
f 38/40/20 23/41/20 24/27/20 25/26/20 
f 38/40/20 25/26/20 26/28/20 27/29/20 
f 38/40/20 27/29/20 28/30/20 29/31/20 
f 38/40/20 29/31/20 30/32/20 31/33/20 
f 38/40/20 31/33/20 32/34/20 33/35/20 
f 38/40/20 33/35/20 34/36/20 35/37/20 
f 38/40/20 35/37/20 36/38/20 37/39/20 
# 36 polygons

#
# object Cylinder046
#

v  307.2221 33.5540 61.7132
v  309.9662 41.0250 63.2910
v  311.3757 40.4781 60.9130
v  312.2842 39.0960 58.6315
v  306.3642 39.4582 67.2122
v  308.2257 40.6708 65.4787
v  303.1637 35.1288 68.5603
v  304.6062 37.5335 68.2825
v  301.8621 30.0626 66.7046
v  302.2107 32.5342 68.0124
v  303.0685 26.6300 62.5133
v  302.1600 28.0121 64.7948
v  306.2185 26.4373 57.9477
v  304.4780 26.0831 60.1353
v  309.8380 29.5746 55.1439
v  308.0800 27.6499 56.2141
v  312.2336 34.5739 55.4140
v  311.2805 31.9793 54.8660
v  312.5821 37.0455 56.7218
v  312.0970 40.1047 61.4264
v  313.0054 38.7227 59.1449
v  310.6875 40.6516 63.8044
v  308.9470 40.2974 65.9921
v  307.0855 39.0849 67.7256
v  305.3275 37.1601 68.7958
v  303.8849 34.7555 69.0737
v  302.9319 32.1608 68.5257
v  302.5833 29.6892 67.2180
v  302.8813 27.6387 65.3082
v  303.7898 26.2567 63.0267
v  305.1992 25.7098 60.6487
v  306.9397 26.0640 58.4610
v  308.8012 27.2765 56.7275
v  310.5593 29.2012 55.6573
v  312.0018 31.6059 55.3794
v  312.9548 34.2005 55.9274
v  313.3034 36.6722 57.2351
v  307.9434 33.1807 62.2265
# 38 vertices

vn 0.0000 -1.0000 -0.0000
vn 1.0000 0.0000 0.0000
vn 0.9397 0.0000 -0.3420
vn 0.7660 0.0000 -0.6428
vn 0.5000 0.0000 -0.8660
vn 0.1736 0.0000 -0.9848
vn -0.1736 0.0000 -0.9848
vn -0.5000 0.0000 -0.8660
vn -0.7660 0.0000 -0.6428
vn -0.9397 0.0000 -0.3420
vn -1.0000 0.0000 -0.0000
vn -0.9397 0.0000 0.3420
vn -0.7660 0.0000 0.6428
vn -0.5000 0.0000 0.8660
vn -0.1736 0.0000 0.9848
vn 0.1736 0.0000 0.9848
vn 0.5000 0.0000 0.8660
vn 0.7660 0.0000 0.6428
vn 0.9397 0.0000 0.3420
vn 0.0000 1.0000 -0.0000
# 20 vertex normals

vt 0.5000 0.0000 0.0000
vt 0.8611 0.0000 0.0000
vt 0.8056 0.0000 0.0000
vt 0.7500 0.0000 0.0000
vt 0.9722 0.0000 0.0000
vt 0.9167 0.0000 0.0000
vt 0.0833 0.0000 0.0000
vt 0.0278 0.0000 0.0000
vt -0.0278 0.0000 0.0000
vt 0.1944 0.0000 0.0000
vt 0.1389 0.0000 0.0000
vt 0.3056 0.0000 0.0000
vt 0.2500 0.0000 0.0000
vt 0.4167 0.0000 0.0000
vt 0.3611 0.0000 0.0000
vt 0.5278 0.0000 0.0000
vt 0.4722 0.0000 0.0000
vt 0.6389 0.0000 0.0000
vt 0.5833 0.0000 0.0000
vt 0.6944 0.0000 0.0000
vt 0.8056 1.0000 0.0000
vt 0.7500 1.0000 0.0000
vt 0.8611 1.0000 0.0000
vt 0.9167 1.0000 0.0000
vt 0.9722 1.0000 0.0000
vt 0.0278 1.0000 0.0000
vt -0.0278 1.0000 0.0000
vt 0.0833 1.0000 0.0000
vt 0.1389 1.0000 0.0000
vt 0.1944 1.0000 0.0000
vt 0.2500 1.0000 0.0000
vt 0.3056 1.0000 0.0000
vt 0.3611 1.0000 0.0000
vt 0.4167 1.0000 0.0000
vt 0.4722 1.0000 0.0000
vt 0.5278 1.0000 0.0000
vt 0.5833 1.0000 0.0000
vt 0.6389 1.0000 0.0000
vt 0.6944 1.0000 0.0000
vt 0.5000 1.0000 0.0000
vt -0.0197 1.0000 0.0000
# 41 texture coords

o Cylinder046
g Cylinder046
usemtl wire_115115115
s off
f 39/42/21 40/43/21 41/44/21 42/45/21 
f 39/42/21 43/46/21 44/47/21 40/43/21 
f 39/42/21 45/48/21 46/49/21 43/50/21 
f 39/42/21 47/51/21 48/52/21 45/48/21 
f 39/42/21 49/53/21 50/54/21 47/51/21 
f 39/42/21 51/55/21 52/56/21 49/53/21 
f 39/42/21 53/57/21 54/58/21 51/55/21 
f 39/42/21 55/59/21 56/60/21 53/57/21 
f 39/42/21 42/45/21 57/61/21 55/59/21 
f 42/45/22 41/44/23 58/62/23 59/63/22 
f 41/44/23 40/43/24 60/64/24 58/62/23 
f 40/43/24 44/47/25 61/65/25 60/64/24 
f 44/47/25 43/46/26 62/66/26 61/65/25 
f 43/50/26 46/49/27 63/67/27 62/68/26 
f 46/49/27 45/48/28 64/69/28 63/67/27 
f 45/48/28 48/52/29 65/70/29 64/69/28 
f 48/52/29 47/51/30 66/71/30 65/70/29 
f 47/51/30 50/54/31 67/72/31 66/71/30 
f 50/54/31 49/53/32 68/73/32 67/72/31 
f 49/53/32 52/56/33 69/74/33 68/73/32 
f 52/56/33 51/55/34 70/75/34 69/74/33 
f 51/55/34 54/58/35 71/76/35 70/75/34 
f 54/58/35 53/57/36 72/77/36 71/76/35 
f 53/57/36 56/60/37 73/78/37 72/77/36 
f 56/60/37 55/59/38 74/79/38 73/78/37 
f 55/59/38 57/61/39 75/80/39 74/79/38 
f 57/61/39 42/45/22 59/63/22 75/80/39 
f 76/81/40 75/80/40 59/63/40 58/62/40 
f 76/81/40 58/62/40 60/64/40 61/65/40 
f 76/81/40 61/82/40 62/68/40 63/67/40 
f 76/81/40 63/67/40 64/69/40 65/70/40 
f 76/81/40 65/70/40 66/71/40 67/72/40 
f 76/81/40 67/72/40 68/73/40 69/74/40 
f 76/81/40 69/74/40 70/75/40 71/76/40 
f 76/81/40 71/76/40 72/77/40 73/78/40 
f 76/81/40 73/78/40 74/79/40 75/80/40 
# 36 polygons

#
# object Cylinder043
#

v  306.6739 33.5414 -356.0944
v  312.7654 38.6815 -354.5753
v  313.5644 36.4935 -352.9894
v  313.5323 33.9495 -351.7781
v  309.1482 41.0084 -358.0833
v  311.2316 40.2495 -356.3444
v  304.3732 39.8414 -360.6606
v  306.7663 40.8667 -359.5823
v  300.6748 35.7266 -361.1013
v  302.2577 38.0563 -361.1882
v  299.7834 30.5893 -359.1993
v  299.8155 33.1333 -360.4106
v  302.1161 26.8333 -355.8444
v  300.5824 28.4013 -357.6134
v  306.5815 26.2161 -352.6064
v  304.1996 26.0744 -354.1054
v  311.0901 29.0265 -351.0005
v  308.9745 27.2413 -351.5281
v  312.6730 31.3562 -351.0874
v  313.0747 36.8539 -352.2455
v  313.0427 34.3099 -351.0341
v  312.2757 39.0419 -353.8313
v  310.7420 40.6099 -355.6004
v  308.6585 41.3688 -357.3393
v  306.2766 41.2271 -358.8383
v  303.8836 40.2019 -359.9167
v  301.7680 38.4167 -360.4442
v  300.1851 36.0870 -360.3574
v  299.3258 33.4937 -359.6667
v  299.2937 30.9497 -358.4553
v  300.0928 28.7617 -356.8695
v  301.6265 27.1937 -355.1004
v  303.7100 26.4348 -353.3615
v  306.0919 26.5765 -351.8625
v  308.4849 27.6017 -350.7841
v  310.6005 29.3869 -350.2566
v  312.1833 31.7166 -350.3434
v  306.1842 33.9018 -355.3504
# 38 vertices

vn 0.0000 -1.0000 -0.0000
vn 1.0000 0.0000 0.0000
vn 0.9397 0.0000 -0.3420
vn 0.7660 0.0000 -0.6428
vn 0.5000 0.0000 -0.8660
vn 0.1736 0.0000 -0.9848
vn -0.1736 0.0000 -0.9848
vn -0.5000 0.0000 -0.8660
vn -0.7660 0.0000 -0.6428
vn -0.9397 0.0000 -0.3420
vn -1.0000 0.0000 -0.0000
vn -0.9397 0.0000 0.3420
vn -0.7660 0.0000 0.6428
vn -0.5000 0.0000 0.8660
vn -0.1736 0.0000 0.9848
vn 0.1736 0.0000 0.9848
vn 0.5000 0.0000 0.8660
vn 0.7660 0.0000 0.6428
vn 0.9397 0.0000 0.3420
vn 0.0000 1.0000 -0.0000
# 20 vertex normals

vt 0.5000 0.0000 0.0000
vt 0.8611 0.0000 0.0000
vt 0.8056 0.0000 0.0000
vt 0.7500 0.0000 0.0000
vt 0.9722 0.0000 0.0000
vt 0.9167 0.0000 0.0000
vt 0.0833 0.0000 0.0000
vt 0.0278 0.0000 0.0000
vt -0.0278 0.0000 0.0000
vt 0.1944 0.0000 0.0000
vt 0.1389 0.0000 0.0000
vt 0.3056 0.0000 0.0000
vt 0.2500 0.0000 0.0000
vt 0.4167 0.0000 0.0000
vt 0.3611 0.0000 0.0000
vt 0.5278 0.0000 0.0000
vt 0.4722 0.0000 0.0000
vt 0.6389 0.0000 0.0000
vt 0.5833 0.0000 0.0000
vt 0.6944 0.0000 0.0000
vt 0.8056 1.0000 0.0000
vt 0.7500 1.0000 0.0000
vt 0.8611 1.0000 0.0000
vt 0.9167 1.0000 0.0000
vt 0.9722 1.0000 0.0000
vt 0.0278 1.0000 0.0000
vt -0.0278 1.0000 0.0000
vt 0.0833 1.0000 0.0000
vt 0.1389 1.0000 0.0000
vt 0.1944 1.0000 0.0000
vt 0.2500 1.0000 0.0000
vt 0.3056 1.0000 0.0000
vt 0.3611 1.0000 0.0000
vt 0.4167 1.0000 0.0000
vt 0.4722 1.0000 0.0000
vt 0.5278 1.0000 0.0000
vt 0.5833 1.0000 0.0000
vt 0.6389 1.0000 0.0000
vt 0.6944 1.0000 0.0000
vt 0.5000 1.0000 0.0000
vt -0.0197 1.0000 0.0000
# 41 texture coords

o Cylinder043
g Cylinder043
usemtl wire_115115115
s off
f 77/83/41 78/84/41 79/85/41 80/86/41 
f 77/83/41 81/87/41 82/88/41 78/84/41 
f 77/83/41 83/89/41 84/90/41 81/91/41 
f 77/83/41 85/92/41 86/93/41 83/89/41 
f 77/83/41 87/94/41 88/95/41 85/92/41 
f 77/83/41 89/96/41 90/97/41 87/94/41 
f 77/83/41 91/98/41 92/99/41 89/96/41 
f 77/83/41 93/100/41 94/101/41 91/98/41 
f 77/83/41 80/86/41 95/102/41 93/100/41 
f 80/86/42 79/85/43 96/103/43 97/104/42 
f 79/85/43 78/84/44 98/105/44 96/103/43 
f 78/84/44 82/88/45 99/106/45 98/105/44 
f 82/88/45 81/87/46 100/107/46 99/106/45 
f 81/91/46 84/90/47 101/108/47 100/109/46 
f 84/90/47 83/89/48 102/110/48 101/108/47 
f 83/89/48 86/93/49 103/111/49 102/110/48 
f 86/93/49 85/92/50 104/112/50 103/111/49 
f 85/92/50 88/95/51 105/113/51 104/112/50 
f 88/95/51 87/94/52 106/114/52 105/113/51 
f 87/94/52 90/97/53 107/115/53 106/114/52 
f 90/97/53 89/96/54 108/116/54 107/115/53 
f 89/96/54 92/99/55 109/117/55 108/116/54 
f 92/99/55 91/98/56 110/118/56 109/117/55 
f 91/98/56 94/101/57 111/119/57 110/118/56 
f 94/101/57 93/100/58 112/120/58 111/119/57 
f 93/100/58 95/102/59 113/121/59 112/120/58 
f 95/102/59 80/86/42 97/104/42 113/121/59 
f 114/122/60 113/121/60 97/104/60 96/103/60 
f 114/122/60 96/103/60 98/105/60 99/106/60 
f 114/122/60 99/123/60 100/109/60 101/108/60 
f 114/122/60 101/108/60 102/110/60 103/111/60 
f 114/122/60 103/111/60 104/112/60 105/113/60 
f 114/122/60 105/113/60 106/114/60 107/115/60 
f 114/122/60 107/115/60 108/116/60 109/117/60 
f 114/122/60 109/117/60 110/118/60 111/119/60 
f 114/122/60 111/119/60 112/120/60 113/121/60 
# 36 polygons

#
# object Cylinder050
#

v  32.0291 59.1313 49.9016
v  35.1495 66.6022 50.4337
v  35.6502 66.0553 47.7151
v  35.7141 64.6732 45.2602
v  33.1248 65.0354 55.3582
v  34.2724 66.2480 53.0881
v  30.5874 60.7060 57.7295
v  31.8450 63.1107 56.9701
v  28.7247 55.6398 56.4380
v  29.5038 58.1114 57.5447
v  28.4081 52.2072 52.0880
v  28.3442 53.5893 54.5429
v  29.7858 52.0145 46.7150
v  28.9088 51.6603 49.3694
v  32.2132 55.1518 42.8330
v  30.9335 53.2271 44.4450
v  34.5545 60.1511 42.2585
v  33.4708 57.5565 42.0737
v  35.3336 62.6227 43.3652
v  36.5044 65.6819 47.9476
v  36.5683 64.2999 45.4927
v  36.0037 66.2288 50.6662
v  35.1267 65.8746 53.3206
v  33.9790 64.6621 55.5906
v  32.6993 62.7374 57.2026
v  31.4417 60.3327 57.9619
v  30.3580 57.7381 57.7771
v  29.5789 55.2664 56.6704
v  29.1984 53.2160 54.7754
v  29.2623 51.8339 52.3205
v  29.7630 51.2870 49.6019
v  30.6401 51.6412 46.9475
v  31.7877 52.8538 44.6774
v  33.0675 54.7785 43.0655
v  34.3251 57.1831 42.3061
v  35.4087 59.7778 42.4909
v  36.1878 62.2494 43.5976
v  32.8834 58.7579 50.1340
# 38 vertices

vn 0.0000 -1.0000 -0.0000
vn 1.0000 0.0000 0.0000
vn 0.9397 0.0000 -0.3420
vn 0.7660 0.0000 -0.6428
vn 0.5000 0.0000 -0.8660
vn 0.1736 0.0000 -0.9848
vn -0.1736 0.0000 -0.9848
vn -0.5000 0.0000 -0.8660
vn -0.7660 0.0000 -0.6428
vn -0.9397 0.0000 -0.3420
vn -1.0000 0.0000 -0.0000
vn -0.9397 0.0000 0.3420
vn -0.7660 0.0000 0.6428
vn -0.5000 0.0000 0.8660
vn -0.1736 0.0000 0.9848
vn 0.1736 0.0000 0.9848
vn 0.5000 0.0000 0.8660
vn 0.7660 0.0000 0.6428
vn 0.9397 0.0000 0.3420
vn 0.0000 1.0000 -0.0000
# 20 vertex normals

vt 0.5000 0.0000 0.0000
vt 0.8611 0.0000 0.0000
vt 0.8056 0.0000 0.0000
vt 0.7500 0.0000 0.0000
vt 0.9722 0.0000 0.0000
vt 0.9167 0.0000 0.0000
vt 0.0833 0.0000 0.0000
vt 0.0278 0.0000 0.0000
vt -0.0278 0.0000 0.0000
vt 0.1944 0.0000 0.0000
vt 0.1389 0.0000 0.0000
vt 0.3056 0.0000 0.0000
vt 0.2500 0.0000 0.0000
vt 0.4167 0.0000 0.0000
vt 0.3611 0.0000 0.0000
vt 0.5278 0.0000 0.0000
vt 0.4722 0.0000 0.0000
vt 0.6389 0.0000 0.0000
vt 0.5833 0.0000 0.0000
vt 0.6944 0.0000 0.0000
vt 0.8056 1.0000 0.0000
vt 0.7500 1.0000 0.0000
vt 0.8611 1.0000 0.0000
vt 0.9167 1.0000 0.0000
vt 0.9722 1.0000 0.0000
vt 0.0278 1.0000 0.0000
vt -0.0278 1.0000 0.0000
vt 0.0833 1.0000 0.0000
vt 0.1389 1.0000 0.0000
vt 0.1944 1.0000 0.0000
vt 0.2500 1.0000 0.0000
vt 0.3056 1.0000 0.0000
vt 0.3611 1.0000 0.0000
vt 0.4167 1.0000 0.0000
vt 0.4722 1.0000 0.0000
vt 0.5278 1.0000 0.0000
vt 0.5833 1.0000 0.0000
vt 0.6389 1.0000 0.0000
vt 0.6944 1.0000 0.0000
vt 0.5000 1.0000 0.0000
vt -0.0197 1.0000 0.0000
# 41 texture coords

o Cylinder050
g Cylinder050
usemtl wire_115115115
s off
f 115/124/61 116/125/61 117/126/61 118/127/61 
f 115/124/61 119/128/61 120/129/61 116/125/61 
f 115/124/61 121/130/61 122/131/61 119/132/61 
f 115/124/61 123/133/61 124/134/61 121/130/61 
f 115/124/61 125/135/61 126/136/61 123/133/61 
f 115/124/61 127/137/61 128/138/61 125/135/61 
f 115/124/61 129/139/61 130/140/61 127/137/61 
f 115/124/61 131/141/61 132/142/61 129/139/61 
f 115/124/61 118/127/61 133/143/61 131/141/61 
f 118/127/62 117/126/63 134/144/63 135/145/62 
f 117/126/63 116/125/64 136/146/64 134/144/63 
f 116/125/64 120/129/65 137/147/65 136/146/64 
f 120/129/65 119/128/66 138/148/66 137/147/65 
f 119/132/66 122/131/67 139/149/67 138/150/66 
f 122/131/67 121/130/68 140/151/68 139/149/67 
f 121/130/68 124/134/69 141/152/69 140/151/68 
f 124/134/69 123/133/70 142/153/70 141/152/69 
f 123/133/70 126/136/71 143/154/71 142/153/70 
f 126/136/71 125/135/72 144/155/72 143/154/71 
f 125/135/72 128/138/73 145/156/73 144/155/72 
f 128/138/73 127/137/74 146/157/74 145/156/73 
f 127/137/74 130/140/75 147/158/75 146/157/74 
f 130/140/75 129/139/76 148/159/76 147/158/75 
f 129/139/76 132/142/77 149/160/77 148/159/76 
f 132/142/77 131/141/78 150/161/78 149/160/77 
f 131/141/78 133/143/79 151/162/79 150/161/78 
f 133/143/79 118/127/62 135/145/62 151/162/79 
f 152/163/80 151/162/80 135/145/80 134/144/80 
f 152/163/80 134/144/80 136/146/80 137/147/80 
f 152/163/80 137/164/80 138/150/80 139/149/80 
f 152/163/80 139/149/80 140/151/80 141/152/80 
f 152/163/80 141/152/80 142/153/80 143/154/80 
f 152/163/80 143/154/80 144/155/80 145/156/80 
f 152/163/80 145/156/80 146/157/80 147/158/80 
f 152/163/80 147/158/80 148/159/80 149/160/80 
f 152/163/80 149/160/80 150/161/80 151/162/80 
# 36 polygons

#
# object Cylinder052
#

v  12.4087 58.8357 -16.3793
v  9.1509 64.2950 -21.4209
v  11.4166 65.7254 -20.5485
v  13.8019 66.3249 -19.1732
v  6.0243 59.7106 -21.3096
v  7.2782 62.2060 -21.6853
v  5.8849 54.7169 -18.8913
v  5.5404 57.1097 -20.3393
v  8.7982 51.6504 -15.2976
v  7.0163 52.8209 -17.1404
v  13.4008 51.9460 -12.2101
v  11.0154 51.3466 -13.5854
v  17.5392 55.4654 -11.0733
v  15.6665 53.3765 -11.3376
v  19.2770 60.5618 -12.4193
v  18.7931 57.9608 -11.4490
v  17.8010 64.8505 -15.6182
v  18.9324 62.9546 -13.8672
v  16.0192 66.0210 -17.4609
v  10.9056 66.0916 -19.8219
v  13.2910 66.6910 -18.4466
v  8.6400 64.6611 -20.6943
v  6.7672 62.5722 -20.9586
v  5.5133 60.0768 -20.5830
v  5.0294 57.4758 -19.6127
v  5.3740 55.0830 -18.1647
v  6.5054 53.1871 -16.4138
v  8.2872 52.0166 -14.5710
v  10.5045 51.7127 -12.8587
v  12.8898 52.3122 -11.4834
v  15.1555 53.7426 -10.6110
v  17.0282 55.8315 -10.3467
v  18.2822 58.3270 -10.7223
v  18.7660 60.9279 -11.6926
v  18.4215 63.3207 -13.1406
v  17.2901 65.2167 -14.8915
v  15.5083 66.3872 -16.7343
v  11.8977 59.2019 -15.6527
# 38 vertices

vn 0.0000 -1.0000 -0.0000
vn 1.0000 0.0000 0.0000
vn 0.9397 0.0000 -0.3420
vn 0.7660 0.0000 -0.6428
vn 0.5000 0.0000 -0.8660
vn 0.1736 0.0000 -0.9848
vn -0.1736 0.0000 -0.9848
vn -0.5000 0.0000 -0.8660
vn -0.7660 0.0000 -0.6428
vn -0.9397 0.0000 -0.3420
vn -1.0000 0.0000 -0.0000
vn -0.9397 0.0000 0.3420
vn -0.7660 0.0000 0.6428
vn -0.5000 0.0000 0.8660
vn -0.1736 0.0000 0.9848
vn 0.1736 0.0000 0.9848
vn 0.5000 0.0000 0.8660
vn 0.7660 0.0000 0.6428
vn 0.9397 0.0000 0.3420
vn 0.0000 1.0000 -0.0000
# 20 vertex normals

vt 0.5000 0.0000 0.0000
vt 0.8611 0.0000 0.0000
vt 0.8056 0.0000 0.0000
vt 0.7500 0.0000 0.0000
vt 0.9722 0.0000 0.0000
vt 0.9167 0.0000 0.0000
vt 0.0833 0.0000 0.0000
vt 0.0278 0.0000 0.0000
vt -0.0278 0.0000 0.0000
vt 0.1944 0.0000 0.0000
vt 0.1389 0.0000 0.0000
vt 0.3056 0.0000 0.0000
vt 0.2500 0.0000 0.0000
vt 0.4167 0.0000 0.0000
vt 0.3611 0.0000 0.0000
vt 0.5278 0.0000 0.0000
vt 0.4722 0.0000 0.0000
vt 0.6389 0.0000 0.0000
vt 0.5833 0.0000 0.0000
vt 0.6944 0.0000 0.0000
vt 0.8056 1.0000 0.0000
vt 0.7500 1.0000 0.0000
vt 0.8611 1.0000 0.0000
vt 0.9167 1.0000 0.0000
vt 0.9722 1.0000 0.0000
vt 0.0278 1.0000 0.0000
vt -0.0278 1.0000 0.0000
vt 0.0833 1.0000 0.0000
vt 0.1389 1.0000 0.0000
vt 0.1944 1.0000 0.0000
vt 0.2500 1.0000 0.0000
vt 0.3056 1.0000 0.0000
vt 0.3611 1.0000 0.0000
vt 0.4167 1.0000 0.0000
vt 0.4722 1.0000 0.0000
vt 0.5278 1.0000 0.0000
vt 0.5833 1.0000 0.0000
vt 0.6389 1.0000 0.0000
vt 0.6944 1.0000 0.0000
vt 0.5000 1.0000 0.0000
vt -0.0197 1.0000 0.0000
# 41 texture coords

o Cylinder052
g Cylinder052
usemtl wire_115115115
s off
f 153/165/81 154/166/81 155/167/81 156/168/81 
f 153/165/81 157/169/81 158/170/81 154/166/81 
f 153/165/81 159/171/81 160/172/81 157/173/81 
f 153/165/81 161/174/81 162/175/81 159/171/81 
f 153/165/81 163/176/81 164/177/81 161/174/81 
f 153/165/81 165/178/81 166/179/81 163/176/81 
f 153/165/81 167/180/81 168/181/81 165/178/81 
f 153/165/81 169/182/81 170/183/81 167/180/81 
f 153/165/81 156/168/81 171/184/81 169/182/81 
f 156/168/82 155/167/83 172/185/83 173/186/82 
f 155/167/83 154/166/84 174/187/84 172/185/83 
f 154/166/84 158/170/85 175/188/85 174/187/84 
f 158/170/85 157/169/86 176/189/86 175/188/85 
f 157/173/86 160/172/87 177/190/87 176/191/86 
f 160/172/87 159/171/88 178/192/88 177/190/87 
f 159/171/88 162/175/89 179/193/89 178/192/88 
f 162/175/89 161/174/90 180/194/90 179/193/89 
f 161/174/90 164/177/91 181/195/91 180/194/90 
f 164/177/91 163/176/92 182/196/92 181/195/91 
f 163/176/92 166/179/93 183/197/93 182/196/92 
f 166/179/93 165/178/94 184/198/94 183/197/93 
f 165/178/94 168/181/95 185/199/95 184/198/94 
f 168/181/95 167/180/96 186/200/96 185/199/95 
f 167/180/96 170/183/97 187/201/97 186/200/96 
f 170/183/97 169/182/98 188/202/98 187/201/97 
f 169/182/98 171/184/99 189/203/99 188/202/98 
f 171/184/99 156/168/82 173/186/82 189/203/99 
f 190/204/100 189/203/100 173/186/100 172/185/100 
f 190/204/100 172/185/100 174/187/100 175/188/100 
f 190/204/100 175/205/100 176/191/100 177/190/100 
f 190/204/100 177/190/100 178/192/100 179/193/100 
f 190/204/100 179/193/100 180/194/100 181/195/100 
f 190/204/100 181/195/100 182/196/100 183/197/100 
f 190/204/100 183/197/100 184/198/100 185/199/100 
f 190/204/100 185/199/100 186/200/100 187/201/100 
f 190/204/100 187/201/100 188/202/100 189/203/100 
# 36 polygons

#
# object Cylinder048
#

v  -21.4444 58.2074 89.3001
v  -21.1101 65.6784 92.4478
v  -18.3576 65.1314 92.1923
v  -15.9774 63.7494 91.5879
v  -26.3992 64.1116 91.8350
v  -23.9029 65.3242 92.3237
v  -29.3698 59.7822 90.0360
v  -28.2978 62.1869 91.0404
v  -28.6321 54.7160 87.8928
v  -29.4859 57.1876 88.9428
v  -24.5311 51.2834 86.4080
v  -26.9113 52.6655 87.0124
v  -18.9858 51.0907 86.2765
v  -21.7786 50.7365 86.1525
v  -14.5909 54.2280 87.5598
v  -16.4896 52.3033 86.7653
v  -13.4028 59.2273 89.6574
v  -13.5189 56.6327 88.5643
v  -14.2566 61.6989 90.7075
v  -18.3496 64.7581 93.0775
v  -15.9694 63.3761 92.4731
v  -21.1021 65.3050 93.3331
v  -23.8949 64.9508 93.2090
v  -26.3911 63.7383 92.7202
v  -28.2898 61.8135 91.9257
v  -29.3618 59.4089 90.9213
v  -29.4779 56.8142 89.8281
v  -28.6241 54.3426 88.7780
v  -26.9033 52.2921 87.8977
v  -24.5231 50.9101 87.2933
v  -21.7706 50.3632 87.0377
v  -18.9778 50.7174 87.1618
v  -16.4816 51.9299 87.6506
v  -14.5829 53.8546 88.4451
v  -13.5109 56.2593 89.4495
v  -13.3948 58.8539 90.5427
v  -14.2486 61.3256 91.5928
v  -21.4363 57.8341 90.1854
# 38 vertices

vn 0.0000 -1.0000 -0.0000
vn 1.0000 0.0000 0.0000
vn 0.9397 0.0000 -0.3420
vn 0.7660 0.0000 -0.6428
vn 0.5000 0.0000 -0.8660
vn 0.1736 0.0000 -0.9848
vn -0.1736 0.0000 -0.9848
vn -0.5000 0.0000 -0.8660
vn -0.7660 0.0000 -0.6428
vn -0.9397 0.0000 -0.3420
vn -1.0000 0.0000 -0.0000
vn -0.9397 0.0000 0.3420
vn -0.7660 0.0000 0.6428
vn -0.5000 0.0000 0.8660
vn -0.1736 0.0000 0.9848
vn 0.1736 0.0000 0.9848
vn 0.5000 0.0000 0.8660
vn 0.7660 0.0000 0.6428
vn 0.9397 0.0000 0.3420
vn 0.0000 1.0000 -0.0000
# 20 vertex normals

vt 0.5000 0.0000 0.0000
vt 0.8611 0.0000 0.0000
vt 0.8056 0.0000 0.0000
vt 0.7500 0.0000 0.0000
vt 0.9722 0.0000 0.0000
vt 0.9167 0.0000 0.0000
vt 0.0833 0.0000 0.0000
vt 0.0278 0.0000 0.0000
vt -0.0278 0.0000 0.0000
vt 0.1944 0.0000 0.0000
vt 0.1389 0.0000 0.0000
vt 0.3056 0.0000 0.0000
vt 0.2500 0.0000 0.0000
vt 0.4167 0.0000 0.0000
vt 0.3611 0.0000 0.0000
vt 0.5278 0.0000 0.0000
vt 0.4722 0.0000 0.0000
vt 0.6389 0.0000 0.0000
vt 0.5833 0.0000 0.0000
vt 0.6944 0.0000 0.0000
vt 0.8056 1.0000 0.0000
vt 0.7500 1.0000 0.0000
vt 0.8611 1.0000 0.0000
vt 0.9167 1.0000 0.0000
vt 0.9722 1.0000 0.0000
vt 0.0278 1.0000 0.0000
vt -0.0278 1.0000 0.0000
vt 0.0833 1.0000 0.0000
vt 0.1389 1.0000 0.0000
vt 0.1944 1.0000 0.0000
vt 0.2500 1.0000 0.0000
vt 0.3056 1.0000 0.0000
vt 0.3611 1.0000 0.0000
vt 0.4167 1.0000 0.0000
vt 0.4722 1.0000 0.0000
vt 0.5278 1.0000 0.0000
vt 0.5833 1.0000 0.0000
vt 0.6389 1.0000 0.0000
vt 0.6944 1.0000 0.0000
vt 0.5000 1.0000 0.0000
vt -0.0197 1.0000 0.0000
# 41 texture coords

o Cylinder048
g Cylinder048
usemtl wire_115115115
s off
f 191/206/101 192/207/101 193/208/101 194/209/101 
f 191/206/101 195/210/101 196/211/101 192/207/101 
f 191/206/101 197/212/101 198/213/101 195/214/101 
f 191/206/101 199/215/101 200/216/101 197/212/101 
f 191/206/101 201/217/101 202/218/101 199/215/101 
f 191/206/101 203/219/101 204/220/101 201/217/101 
f 191/206/101 205/221/101 206/222/101 203/219/101 
f 191/206/101 207/223/101 208/224/101 205/221/101 
f 191/206/101 194/209/101 209/225/101 207/223/101 
f 194/209/102 193/208/103 210/226/103 211/227/102 
f 193/208/103 192/207/104 212/228/104 210/226/103 
f 192/207/104 196/211/105 213/229/105 212/228/104 
f 196/211/105 195/210/106 214/230/106 213/229/105 
f 195/214/106 198/213/107 215/231/107 214/232/106 
f 198/213/107 197/212/108 216/233/108 215/231/107 
f 197/212/108 200/216/109 217/234/109 216/233/108 
f 200/216/109 199/215/110 218/235/110 217/234/109 
f 199/215/110 202/218/111 219/236/111 218/235/110 
f 202/218/111 201/217/112 220/237/112 219/236/111 
f 201/217/112 204/220/113 221/238/113 220/237/112 
f 204/220/113 203/219/114 222/239/114 221/238/113 
f 203/219/114 206/222/115 223/240/115 222/239/114 
f 206/222/115 205/221/116 224/241/116 223/240/115 
f 205/221/116 208/224/117 225/242/117 224/241/116 
f 208/224/117 207/223/118 226/243/118 225/242/117 
f 207/223/118 209/225/119 227/244/119 226/243/118 
f 209/225/119 194/209/102 211/227/102 227/244/119 
f 228/245/120 227/244/120 211/227/120 210/226/120 
f 228/245/120 210/226/120 212/228/120 213/229/120 
f 228/245/120 213/246/120 214/232/120 215/231/120 
f 228/245/120 215/231/120 216/233/120 217/234/120 
f 228/245/120 217/234/120 218/235/120 219/236/120 
f 228/245/120 219/236/120 220/237/120 221/238/120 
f 228/245/120 221/238/120 222/239/120 223/240/120 
f 228/245/120 223/240/120 224/241/120 225/242/120 
f 228/245/120 225/242/120 226/243/120 227/244/120 
# 36 polygons

#
# object Cylinder049
#

v  -81.1032 58.2074 48.7500
v  -83.9235 65.6784 50.1872
v  -82.7010 65.1314 52.6665
v  -81.2858 63.7494 54.6734
v  -85.2416 64.1116 45.0285
v  -84.8058 65.3242 47.5345
v  -84.6233 59.7822 41.6110
v  -85.1782 62.1869 42.9713
v  -82.3579 54.7160 41.5340
v  -83.6438 57.1876 41.1119
v  -79.5055 51.2834 44.8334
v  -80.9207 52.6655 42.8265
v  -77.4007 51.0907 49.9654
v  -78.2830 50.7365 47.3127
v  -77.0283 54.2280 54.5286
v  -76.9649 52.3033 52.4714
v  -78.5627 59.2273 56.3880
v  -77.5832 56.6327 55.8889
v  -79.8486 61.6989 55.9659
v  -83.5250 64.7581 52.9904
v  -82.1098 63.3761 54.9973
v  -84.7475 65.3050 50.5111
v  -85.6298 64.9508 47.8584
v  -86.0655 63.7383 45.3524
v  -86.0021 61.8135 43.2952
v  -85.4472 59.4089 41.9349
v  -84.4677 56.8142 41.4358
v  -83.1818 54.3426 41.8579
v  -81.7446 52.2921 43.1504
v  -80.3294 50.9101 45.1573
v  -79.1069 50.3632 47.6366
v  -78.2246 50.7174 50.2893
v  -77.7888 51.9299 52.7953
v  -77.8522 53.8546 54.8525
v  -78.4072 56.2593 56.2128
v  -79.3866 58.8539 56.7119
v  -80.6725 61.3256 56.2898
v  -81.9272 57.8341 49.0739
# 38 vertices

vn 0.0000 -1.0000 -0.0000
vn 1.0000 0.0000 0.0000
vn 0.9397 0.0000 -0.3420
vn 0.7660 0.0000 -0.6428
vn 0.5000 0.0000 -0.8660
vn 0.1736 0.0000 -0.9848
vn -0.1736 0.0000 -0.9848
vn -0.5000 0.0000 -0.8660
vn -0.7660 0.0000 -0.6428
vn -0.9397 0.0000 -0.3420
vn -1.0000 0.0000 -0.0000
vn -0.9397 0.0000 0.3420
vn -0.7660 0.0000 0.6428
vn -0.5000 0.0000 0.8660
vn -0.1736 0.0000 0.9848
vn 0.1736 0.0000 0.9848
vn 0.5000 0.0000 0.8660
vn 0.7660 0.0000 0.6428
vn 0.9397 0.0000 0.3420
vn 0.0000 1.0000 -0.0000
# 20 vertex normals

vt 0.5000 0.0000 0.0000
vt 0.8611 0.0000 0.0000
vt 0.8056 0.0000 0.0000
vt 0.7500 0.0000 0.0000
vt 0.9722 0.0000 0.0000
vt 0.9167 0.0000 0.0000
vt 0.0833 0.0000 0.0000
vt 0.0278 0.0000 0.0000
vt -0.0278 0.0000 0.0000
vt 0.1944 0.0000 0.0000
vt 0.1389 0.0000 0.0000
vt 0.3056 0.0000 0.0000
vt 0.2500 0.0000 0.0000
vt 0.4167 0.0000 0.0000
vt 0.3611 0.0000 0.0000
vt 0.5278 0.0000 0.0000
vt 0.4722 0.0000 0.0000
vt 0.6389 0.0000 0.0000
vt 0.5833 0.0000 0.0000
vt 0.6944 0.0000 0.0000
vt 0.8056 1.0000 0.0000
vt 0.7500 1.0000 0.0000
vt 0.8611 1.0000 0.0000
vt 0.9167 1.0000 0.0000
vt 0.9722 1.0000 0.0000
vt 0.0278 1.0000 0.0000
vt -0.0278 1.0000 0.0000
vt 0.0833 1.0000 0.0000
vt 0.1389 1.0000 0.0000
vt 0.1944 1.0000 0.0000
vt 0.2500 1.0000 0.0000
vt 0.3056 1.0000 0.0000
vt 0.3611 1.0000 0.0000
vt 0.4167 1.0000 0.0000
vt 0.4722 1.0000 0.0000
vt 0.5278 1.0000 0.0000
vt 0.5833 1.0000 0.0000
vt 0.6389 1.0000 0.0000
vt 0.6944 1.0000 0.0000
vt 0.5000 1.0000 0.0000
vt -0.0197 1.0000 0.0000
# 41 texture coords

o Cylinder049
g Cylinder049
usemtl wire_115115115
s off
f 229/247/121 230/248/121 231/249/121 232/250/121 
f 229/247/121 233/251/121 234/252/121 230/248/121 
f 229/247/121 235/253/121 236/254/121 233/255/121 
f 229/247/121 237/256/121 238/257/121 235/253/121 
f 229/247/121 239/258/121 240/259/121 237/256/121 
f 229/247/121 241/260/121 242/261/121 239/258/121 
f 229/247/121 243/262/121 244/263/121 241/260/121 
f 229/247/121 245/264/121 246/265/121 243/262/121 
f 229/247/121 232/250/121 247/266/121 245/264/121 
f 232/250/122 231/249/123 248/267/123 249/268/122 
f 231/249/123 230/248/124 250/269/124 248/267/123 
f 230/248/124 234/252/125 251/270/125 250/269/124 
f 234/252/125 233/251/126 252/271/126 251/270/125 
f 233/255/126 236/254/127 253/272/127 252/273/126 
f 236/254/127 235/253/128 254/274/128 253/272/127 
f 235/253/128 238/257/129 255/275/129 254/274/128 
f 238/257/129 237/256/130 256/276/130 255/275/129 
f 237/256/130 240/259/131 257/277/131 256/276/130 
f 240/259/131 239/258/132 258/278/132 257/277/131 
f 239/258/132 242/261/133 259/279/133 258/278/132 
f 242/261/133 241/260/134 260/280/134 259/279/133 
f 241/260/134 244/263/135 261/281/135 260/280/134 
f 244/263/135 243/262/136 262/282/136 261/281/135 
f 243/262/136 246/265/137 263/283/137 262/282/136 
f 246/265/137 245/264/138 264/284/138 263/283/137 
f 245/264/138 247/266/139 265/285/139 264/284/138 
f 247/266/139 232/250/122 249/268/122 265/285/139 
f 266/286/140 265/285/140 249/268/140 248/267/140 
f 266/286/140 248/267/140 250/269/140 251/270/140 
f 266/286/140 251/287/140 252/273/140 253/272/140 
f 266/286/140 253/272/140 254/274/140 255/275/140 
f 266/286/140 255/275/140 256/276/140 257/277/140 
f 266/286/140 257/277/140 258/278/140 259/279/140 
f 266/286/140 259/279/140 260/280/140 261/281/140 
f 266/286/140 261/281/140 262/282/140 263/283/140 
f 266/286/140 263/283/140 264/284/140 265/285/140 
# 36 polygons

#
# object Cylinder051
#

v  -59.0383 57.1934 -16.5525
v  -60.0040 64.9991 -18.5456
v  -57.6759 64.4028 -20.0170
v  -55.5121 62.9369 -21.0704
v  -64.0441 63.4089 -15.0883
v  -62.2157 64.6539 -16.8339
v  -65.7420 58.9104 -12.3160
v  -65.2688 61.4142 -13.5192
v  -64.3031 53.6085 -11.5260
v  -65.4066 56.1995 -11.6238
v  -60.4008 49.9840 -13.0880
v  -62.5646 51.4499 -12.0345
v  -55.8610 49.7329 -16.2710
v  -58.0727 49.3877 -14.5593
v  -52.8079 52.9726 -19.5858
v  -54.0326 50.9779 -18.0167
v  -52.6701 58.1873 -21.4812
v  -52.3347 55.4764 -20.7890
v  -53.7736 60.7783 -21.5789
v  -57.1351 64.6614 -19.2661
v  -54.9713 63.1956 -20.3195
v  -59.4633 65.2577 -17.7948
v  -61.6749 64.9126 -16.0831
v  -63.5034 63.6675 -14.3374
v  -64.7280 61.6728 -12.7683
v  -65.2012 59.1690 -11.5651
v  -64.8658 56.4581 -10.8729
v  -63.7623 53.8671 -10.7752
v  -62.0238 51.7085 -11.2837
v  -59.8600 50.2426 -12.3371
v  -57.5319 49.6463 -13.8084
v  -55.3202 49.9915 -15.5201
v  -53.4918 51.2365 -17.2658
v  -52.2671 53.2312 -18.8349
v  -51.7940 55.7350 -20.0381
v  -52.1293 58.4459 -20.7303
v  -53.2328 61.0369 -20.8281
v  -58.4976 57.4520 -15.8016
# 38 vertices

vn 0.0000 -1.0000 -0.0000
vn 1.0000 0.0000 0.0000
vn 0.9397 0.0000 -0.3420
vn 0.7660 0.0000 -0.6428
vn 0.5000 0.0000 -0.8660
vn 0.1736 0.0000 -0.9848
vn -0.1736 0.0000 -0.9848
vn -0.5000 0.0000 -0.8660
vn -0.7660 0.0000 -0.6428
vn -0.9397 0.0000 -0.3420
vn -1.0000 0.0000 -0.0000
vn -0.9397 0.0000 0.3420
vn -0.7660 0.0000 0.6428
vn -0.5000 0.0000 0.8660
vn -0.1736 0.0000 0.9848
vn 0.1736 0.0000 0.9848
vn 0.5000 0.0000 0.8660
vn 0.7660 0.0000 0.6428
vn 0.9397 0.0000 0.3420
vn 0.0000 1.0000 -0.0000
# 20 vertex normals

vt 0.5000 0.0000 0.0000
vt 0.8611 0.0000 0.0000
vt 0.8056 0.0000 0.0000
vt 0.7500 0.0000 0.0000
vt 0.9722 0.0000 0.0000
vt 0.9167 0.0000 0.0000
vt 0.0833 0.0000 0.0000
vt 0.0278 0.0000 0.0000
vt -0.0278 0.0000 0.0000
vt 0.1944 0.0000 0.0000
vt 0.1389 0.0000 0.0000
vt 0.3056 0.0000 0.0000
vt 0.2500 0.0000 0.0000
vt 0.4167 0.0000 0.0000
vt 0.3611 0.0000 0.0000
vt 0.5278 0.0000 0.0000
vt 0.4722 0.0000 0.0000
vt 0.6389 0.0000 0.0000
vt 0.5833 0.0000 0.0000
vt 0.6944 0.0000 0.0000
vt 0.8056 1.0000 0.0000
vt 0.7500 1.0000 0.0000
vt 0.8611 1.0000 0.0000
vt 0.9167 1.0000 0.0000
vt 0.9722 1.0000 0.0000
vt 0.0278 1.0000 0.0000
vt -0.0278 1.0000 0.0000
vt 0.0833 1.0000 0.0000
vt 0.1389 1.0000 0.0000
vt 0.1944 1.0000 0.0000
vt 0.2500 1.0000 0.0000
vt 0.3056 1.0000 0.0000
vt 0.3611 1.0000 0.0000
vt 0.4167 1.0000 0.0000
vt 0.4722 1.0000 0.0000
vt 0.5278 1.0000 0.0000
vt 0.5833 1.0000 0.0000
vt 0.6389 1.0000 0.0000
vt 0.6944 1.0000 0.0000
vt 0.5000 1.0000 0.0000
vt -0.0197 1.0000 0.0000
# 41 texture coords

o Cylinder051
g Cylinder051
usemtl wire_115115115
s off
f 267/288/141 268/289/141 269/290/141 270/291/141 
f 267/288/141 271/292/141 272/293/141 268/289/141 
f 267/288/141 273/294/141 274/295/141 271/296/141 
f 267/288/141 275/297/141 276/298/141 273/294/141 
f 267/288/141 277/299/141 278/300/141 275/297/141 
f 267/288/141 279/301/141 280/302/141 277/299/141 
f 267/288/141 281/303/141 282/304/141 279/301/141 
f 267/288/141 283/305/141 284/306/141 281/303/141 
f 267/288/141 270/291/141 285/307/141 283/305/141 
f 270/291/142 269/290/143 286/308/143 287/309/142 
f 269/290/143 268/289/144 288/310/144 286/308/143 
f 268/289/144 272/293/145 289/311/145 288/310/144 
f 272/293/145 271/292/146 290/312/146 289/311/145 
f 271/296/146 274/295/147 291/313/147 290/314/146 
f 274/295/147 273/294/148 292/315/148 291/313/147 
f 273/294/148 276/298/149 293/316/149 292/315/148 
f 276/298/149 275/297/150 294/317/150 293/316/149 
f 275/297/150 278/300/151 295/318/151 294/317/150 
f 278/300/151 277/299/152 296/319/152 295/318/151 
f 277/299/152 280/302/153 297/320/153 296/319/152 
f 280/302/153 279/301/154 298/321/154 297/320/153 
f 279/301/154 282/304/155 299/322/155 298/321/154 
f 282/304/155 281/303/156 300/323/156 299/322/155 
f 281/303/156 284/306/157 301/324/157 300/323/156 
f 284/306/157 283/305/158 302/325/158 301/324/157 
f 283/305/158 285/307/159 303/326/159 302/325/158 
f 285/307/159 270/291/142 287/309/142 303/326/159 
f 304/327/160 303/326/160 287/309/160 286/308/160 
f 304/327/160 286/308/160 288/310/160 289/311/160 
f 304/327/160 289/328/160 290/314/160 291/313/160 
f 304/327/160 291/313/160 292/315/160 293/316/160 
f 304/327/160 293/316/160 294/317/160 295/318/160 
f 304/327/160 295/318/160 296/319/160 297/320/160 
f 304/327/160 297/320/160 298/321/160 299/322/160 
f 304/327/160 299/322/160 300/323/160 301/324/160 
f 304/327/160 301/324/160 302/325/160 303/326/160 
# 36 polygons

#
# object Cylinder047
#

v  -318.7083 32.7256 61.3813
v  -314.0916 33.7406 67.9760
v  -313.3354 31.1258 67.2470
v  -313.2272 28.7039 65.8106
v  -317.1162 38.3024 67.0557
v  -315.4047 36.2330 67.9095
v  -320.8857 40.2547 63.4802
v  -319.0197 39.6991 65.5174
v  -323.6364 38.6840 58.9226
v  -322.4891 39.9022 61.1899
v  -324.0811 34.3254 55.5155
v  -324.1893 36.7472 56.9519
v  -322.0118 29.2181 54.8530
v  -323.3249 31.7105 54.7865
v  -318.3968 25.7521 57.2451
v  -320.3003 27.1488 55.7068
v  -314.9274 25.5490 61.5726
v  -316.5308 25.1965 59.2823
v  -313.7801 26.7671 63.8399
v  -314.0396 30.7694 67.7949
v  -313.9315 28.3475 66.3584
v  -314.7959 33.3842 68.5239
v  -316.1089 35.8766 68.4574
v  -317.8204 37.9460 67.6035
v  -319.7240 39.3427 66.0653
v  -321.5900 39.8983 64.0281
v  -323.1933 39.5458 61.7378
v  -324.3406 38.3276 59.4705
v  -324.8936 36.3908 57.4998
v  -324.7854 33.9690 56.0633
v  -324.0291 31.3541 55.3344
v  -322.7161 28.8617 55.4008
v  -321.0045 26.7924 56.2547
v  -319.1010 25.3957 57.7930
v  -317.2350 24.8401 59.8301
v  -315.6317 25.1926 62.1205
v  -314.4844 26.4107 64.3877
v  -319.4125 32.3692 61.9291
# 38 vertices

vn 0.0000 -1.0000 -0.0000
vn 1.0000 0.0000 0.0000
vn 0.9397 0.0000 -0.3420
vn 0.7660 0.0000 -0.6428
vn 0.5000 0.0000 -0.8660
vn 0.1736 0.0000 -0.9848
vn -0.1736 0.0000 -0.9848
vn -0.5000 0.0000 -0.8660
vn -0.7660 0.0000 -0.6428
vn -0.9397 0.0000 -0.3420
vn -1.0000 0.0000 -0.0000
vn -0.9397 0.0000 0.3420
vn -0.7660 0.0000 0.6428
vn -0.5000 0.0000 0.8660
vn -0.1736 0.0000 0.9848
vn 0.1736 0.0000 0.9848
vn 0.5000 0.0000 0.8660
vn 0.7660 0.0000 0.6428
vn 0.9397 0.0000 0.3420
vn 0.0000 1.0000 -0.0000
# 20 vertex normals

vt 0.5000 0.0000 0.0000
vt 0.8611 0.0000 0.0000
vt 0.8056 0.0000 0.0000
vt 0.7500 0.0000 0.0000
vt 0.9722 0.0000 0.0000
vt 0.9167 0.0000 0.0000
vt 0.0833 0.0000 0.0000
vt 0.0278 0.0000 0.0000
vt -0.0278 0.0000 0.0000
vt 0.1944 0.0000 0.0000
vt 0.1389 0.0000 0.0000
vt 0.3056 0.0000 0.0000
vt 0.2500 0.0000 0.0000
vt 0.4167 0.0000 0.0000
vt 0.3611 0.0000 0.0000
vt 0.5278 0.0000 0.0000
vt 0.4722 0.0000 0.0000
vt 0.6389 0.0000 0.0000
vt 0.5833 0.0000 0.0000
vt 0.6944 0.0000 0.0000
vt 0.8056 1.0000 0.0000
vt 0.7500 1.0000 0.0000
vt 0.8611 1.0000 0.0000
vt 0.9167 1.0000 0.0000
vt 0.9722 1.0000 0.0000
vt 0.0278 1.0000 0.0000
vt -0.0278 1.0000 0.0000
vt 0.0833 1.0000 0.0000
vt 0.1389 1.0000 0.0000
vt 0.1944 1.0000 0.0000
vt 0.2500 1.0000 0.0000
vt 0.3056 1.0000 0.0000
vt 0.3611 1.0000 0.0000
vt 0.4167 1.0000 0.0000
vt 0.4722 1.0000 0.0000
vt 0.5278 1.0000 0.0000
vt 0.5833 1.0000 0.0000
vt 0.6389 1.0000 0.0000
vt 0.6944 1.0000 0.0000
vt 0.5000 1.0000 0.0000
vt -0.0197 1.0000 0.0000
# 41 texture coords

o Cylinder047
g Cylinder047
usemtl wire_115115115
s off
f 305/329/161 306/330/161 307/331/161 308/332/161 
f 305/329/161 309/333/161 310/334/161 306/330/161 
f 305/329/161 311/335/161 312/336/161 309/337/161 
f 305/329/161 313/338/161 314/339/161 311/335/161 
f 305/329/161 315/340/161 316/341/161 313/338/161 
f 305/329/161 317/342/161 318/343/161 315/340/161 
f 305/329/161 319/344/161 320/345/161 317/342/161 
f 305/329/161 321/346/161 322/347/161 319/344/161 
f 305/329/161 308/332/161 323/348/161 321/346/161 
f 308/332/162 307/331/163 324/349/163 325/350/162 
f 307/331/163 306/330/164 326/351/164 324/349/163 
f 306/330/164 310/334/165 327/352/165 326/351/164 
f 310/334/165 309/333/166 328/353/166 327/352/165 
f 309/337/166 312/336/167 329/354/167 328/355/166 
f 312/336/167 311/335/168 330/356/168 329/354/167 
f 311/335/168 314/339/169 331/357/169 330/356/168 
f 314/339/169 313/338/170 332/358/170 331/357/169 
f 313/338/170 316/341/171 333/359/171 332/358/170 
f 316/341/171 315/340/172 334/360/172 333/359/171 
f 315/340/172 318/343/173 335/361/173 334/360/172 
f 318/343/173 317/342/174 336/362/174 335/361/173 
f 317/342/174 320/345/175 337/363/175 336/362/174 
f 320/345/175 319/344/176 338/364/176 337/363/175 
f 319/344/176 322/347/177 339/365/177 338/364/176 
f 322/347/177 321/346/178 340/366/178 339/365/177 
f 321/346/178 323/348/179 341/367/179 340/366/178 
f 323/348/179 308/332/162 325/350/162 341/367/179 
f 342/368/180 341/367/180 325/350/180 324/349/180 
f 342/368/180 324/349/180 326/351/180 327/352/180 
f 342/368/180 327/369/180 328/355/180 329/354/180 
f 342/368/180 329/354/180 330/356/180 331/357/180 
f 342/368/180 331/357/180 332/358/180 333/359/180 
f 342/368/180 333/359/180 334/360/180 335/361/180 
f 342/368/180 335/361/180 336/362/180 337/363/180 
f 342/368/180 337/363/180 338/364/180 339/365/180 
f 342/368/180 339/365/180 340/366/180 341/367/180 
# 36 polygons

#
# object Cylinder044
#

v  -448.9855 31.6355 -101.2645
v  -450.9624 36.9289 -107.0875
v  -450.0244 34.7919 -108.6667
v  -448.9610 32.2742 -109.3531
v  -452.0388 39.1066 -102.0971
v  -451.6620 38.4273 -104.8059
v  -451.6866 37.7886 -96.7172
v  -452.0474 38.8848 -99.2880
v  -450.0704 33.5915 -93.4651
v  -451.0000 35.9502 -94.6950
v  -447.9466 28.4791 -93.8623
v  -449.0100 30.9968 -93.1759
v  -446.3089 24.8437 -97.7232
v  -447.0085 26.3421 -95.4416
v  -445.9236 24.3862 -103.2411
v  -445.9321 24.1644 -100.4319
v  -446.9709 27.3208 -107.8341
v  -446.2844 25.4824 -105.8118
v  -447.9005 29.6795 -109.0640
v  -449.1367 35.1582 -108.6351
v  -448.0733 32.6405 -109.3215
v  -450.0748 37.2952 -107.0558
v  -450.7744 38.7937 -104.7743
v  -451.1512 39.4730 -102.0655
v  -451.1597 39.2511 -99.2564
v  -450.7989 38.1549 -96.6856
v  -450.1123 36.3166 -94.6633
v  -449.1827 33.9578 -93.4334
v  -448.1223 31.3631 -93.1443
v  -447.0589 28.8454 -93.8307
v  -446.1208 26.7085 -95.4100
v  -445.4212 25.2100 -97.6916
v  -445.0444 24.5307 -100.4003
v  -445.0359 24.7525 -103.2094
v  -445.3967 25.8487 -105.7802
v  -446.0833 27.6871 -107.8025
v  -447.0128 30.0458 -109.0324
v  -448.0978 32.0018 -101.2329
# 38 vertices

vn 0.0000 -1.0000 -0.0000
vn 1.0000 0.0000 0.0000
vn 0.9397 0.0000 -0.3420
vn 0.7660 0.0000 -0.6428
vn 0.5000 0.0000 -0.8660
vn 0.1736 0.0000 -0.9848
vn -0.1736 0.0000 -0.9848
vn -0.5000 0.0000 -0.8660
vn -0.7660 0.0000 -0.6428
vn -0.9397 0.0000 -0.3420
vn -1.0000 0.0000 -0.0000
vn -0.9397 0.0000 0.3420
vn -0.7660 0.0000 0.6428
vn -0.5000 0.0000 0.8660
vn -0.1736 0.0000 0.9848
vn 0.1736 0.0000 0.9848
vn 0.5000 0.0000 0.8660
vn 0.7660 0.0000 0.6428
vn 0.9397 0.0000 0.3420
vn 0.0000 1.0000 -0.0000
# 20 vertex normals

vt 0.5000 0.0000 0.0000
vt 0.8611 0.0000 0.0000
vt 0.8056 0.0000 0.0000
vt 0.7500 0.0000 0.0000
vt 0.9722 0.0000 0.0000
vt 0.9167 0.0000 0.0000
vt 0.0833 0.0000 0.0000
vt 0.0278 0.0000 0.0000
vt -0.0278 0.0000 0.0000
vt 0.1944 0.0000 0.0000
vt 0.1389 0.0000 0.0000
vt 0.3056 0.0000 0.0000
vt 0.2500 0.0000 0.0000
vt 0.4167 0.0000 0.0000
vt 0.3611 0.0000 0.0000
vt 0.5278 0.0000 0.0000
vt 0.4722 0.0000 0.0000
vt 0.6389 0.0000 0.0000
vt 0.5833 0.0000 0.0000
vt 0.6944 0.0000 0.0000
vt 0.8056 1.0000 0.0000
vt 0.7500 1.0000 0.0000
vt 0.8611 1.0000 0.0000
vt 0.9167 1.0000 0.0000
vt 0.9722 1.0000 0.0000
vt 0.0278 1.0000 0.0000
vt -0.0278 1.0000 0.0000
vt 0.0833 1.0000 0.0000
vt 0.1389 1.0000 0.0000
vt 0.1944 1.0000 0.0000
vt 0.2500 1.0000 0.0000
vt 0.3056 1.0000 0.0000
vt 0.3611 1.0000 0.0000
vt 0.4167 1.0000 0.0000
vt 0.4722 1.0000 0.0000
vt 0.5278 1.0000 0.0000
vt 0.5833 1.0000 0.0000
vt 0.6389 1.0000 0.0000
vt 0.6944 1.0000 0.0000
vt 0.5000 1.0000 0.0000
vt -0.0197 1.0000 0.0000
# 41 texture coords

o Cylinder044
g Cylinder044
usemtl wire_115115115
s off
f 343/370/181 344/371/181 345/372/181 346/373/181 
f 343/370/181 347/374/181 348/375/181 344/371/181 
f 343/370/181 349/376/181 350/377/181 347/378/181 
f 343/370/181 351/379/181 352/380/181 349/376/181 
f 343/370/181 353/381/181 354/382/181 351/379/181 
f 343/370/181 355/383/181 356/384/181 353/381/181 
f 343/370/181 357/385/181 358/386/181 355/383/181 
f 343/370/181 359/387/181 360/388/181 357/385/181 
f 343/370/181 346/373/181 361/389/181 359/387/181 
f 346/373/182 345/372/183 362/390/183 363/391/182 
f 345/372/183 344/371/184 364/392/184 362/390/183 
f 344/371/184 348/375/185 365/393/185 364/392/184 
f 348/375/185 347/374/186 366/394/186 365/393/185 
f 347/378/186 350/377/187 367/395/187 366/396/186 
f 350/377/187 349/376/188 368/397/188 367/395/187 
f 349/376/188 352/380/189 369/398/189 368/397/188 
f 352/380/189 351/379/190 370/399/190 369/398/189 
f 351/379/190 354/382/191 371/400/191 370/399/190 
f 354/382/191 353/381/192 372/401/192 371/400/191 
f 353/381/192 356/384/193 373/402/193 372/401/192 
f 356/384/193 355/383/194 374/403/194 373/402/193 
f 355/383/194 358/386/195 375/404/195 374/403/194 
f 358/386/195 357/385/196 376/405/196 375/404/195 
f 357/385/196 360/388/197 377/406/197 376/405/196 
f 360/388/197 359/387/198 378/407/198 377/406/197 
f 359/387/198 361/389/199 379/408/199 378/407/198 
f 361/389/199 346/373/182 363/391/182 379/408/199 
f 380/409/200 379/408/200 363/391/200 362/390/200 
f 380/409/200 362/390/200 364/392/200 365/393/200 
f 380/409/200 365/410/200 366/396/200 367/395/200 
f 380/409/200 367/395/200 368/397/200 369/398/200 
f 380/409/200 369/398/200 370/399/200 371/400/200 
f 380/409/200 371/400/200 372/401/200 373/402/200 
f 380/409/200 373/402/200 374/403/200 375/404/200 
f 380/409/200 375/404/200 376/405/200 377/406/200 
f 380/409/200 377/406/200 378/407/200 379/408/200 
# 36 polygons

#
# object Cylinder042
#

v  -316.7067 31.3231 -357.8328
v  -313.0529 36.8024 -362.5722
v  -311.3540 34.5916 -362.9807
v  -310.3008 31.9866 -362.7682
v  -317.5147 39.0544 -360.1586
v  -315.1925 38.3523 -361.5921
v  -321.5985 37.6888 -356.6568
v  -319.7395 38.8240 -358.4446
v  -323.3933 33.3447 -353.7052
v  -322.8674 35.7859 -355.0108
v  -322.0594 28.0546 -352.6850
v  -323.1127 30.6597 -352.8975
v  -318.2209 24.2940 -354.0735
v  -320.3605 25.8439 -353.0934
v  -313.6740 23.8223 -357.2211
v  -315.8987 23.5919 -355.5070
v  -310.5460 26.8603 -360.6548
v  -311.8150 24.9574 -359.0089
v  -310.0201 29.3016 -361.9604
v  -310.8114 34.8715 -362.2388
v  -309.7582 32.2665 -362.0263
v  -312.5103 37.0823 -361.8303
v  -314.6499 38.6322 -360.8502
v  -316.9721 39.3343 -359.4167
v  -319.1969 39.1038 -357.7027
v  -321.0559 37.9687 -355.9149
v  -322.3248 36.0658 -354.2689
v  -322.8507 33.6246 -352.9633
v  -322.5701 30.9395 -352.1556
v  -321.5168 28.3345 -351.9431
v  -319.8180 26.1237 -352.3516
v  -317.6784 24.5738 -353.3316
v  -315.3561 23.8718 -354.7651
v  -313.1314 24.1022 -356.4792
v  -311.2724 25.2373 -358.2670
v  -310.0034 27.1402 -359.9130
v  -309.4775 29.5814 -361.2186
v  -316.1642 31.6030 -357.0909
# 38 vertices

vn 0.0000 -1.0000 -0.0000
vn 1.0000 0.0000 0.0000
vn 0.9397 0.0000 -0.3420
vn 0.7660 0.0000 -0.6428
vn 0.5000 0.0000 -0.8660
vn 0.1736 0.0000 -0.9848
vn -0.1736 0.0000 -0.9848
vn -0.5000 0.0000 -0.8660
vn -0.7660 0.0000 -0.6428
vn -0.9397 0.0000 -0.3420
vn -1.0000 0.0000 -0.0000
vn -0.9397 0.0000 0.3420
vn -0.7660 0.0000 0.6428
vn -0.5000 0.0000 0.8660
vn -0.1736 0.0000 0.9848
vn 0.1736 0.0000 0.9848
vn 0.5000 0.0000 0.8660
vn 0.7660 0.0000 0.6428
vn 0.9397 0.0000 0.3420
vn 0.0000 1.0000 -0.0000
# 20 vertex normals

vt 0.5000 0.0000 0.0000
vt 0.8611 0.0000 0.0000
vt 0.8056 0.0000 0.0000
vt 0.7500 0.0000 0.0000
vt 0.9722 0.0000 0.0000
vt 0.9167 0.0000 0.0000
vt 0.0833 0.0000 0.0000
vt 0.0278 0.0000 0.0000
vt -0.0278 0.0000 0.0000
vt 0.1944 0.0000 0.0000
vt 0.1389 0.0000 0.0000
vt 0.3056 0.0000 0.0000
vt 0.2500 0.0000 0.0000
vt 0.4167 0.0000 0.0000
vt 0.3611 0.0000 0.0000
vt 0.5278 0.0000 0.0000
vt 0.4722 0.0000 0.0000
vt 0.6389 0.0000 0.0000
vt 0.5833 0.0000 0.0000
vt 0.6944 0.0000 0.0000
vt 0.8056 1.0000 0.0000
vt 0.7500 1.0000 0.0000
vt 0.8611 1.0000 0.0000
vt 0.9167 1.0000 0.0000
vt 0.9722 1.0000 0.0000
vt 0.0278 1.0000 0.0000
vt -0.0278 1.0000 0.0000
vt 0.0833 1.0000 0.0000
vt 0.1389 1.0000 0.0000
vt 0.1944 1.0000 0.0000
vt 0.2500 1.0000 0.0000
vt 0.3056 1.0000 0.0000
vt 0.3611 1.0000 0.0000
vt 0.4167 1.0000 0.0000
vt 0.4722 1.0000 0.0000
vt 0.5278 1.0000 0.0000
vt 0.5833 1.0000 0.0000
vt 0.6389 1.0000 0.0000
vt 0.6944 1.0000 0.0000
vt 0.5000 1.0000 0.0000
vt -0.0197 1.0000 0.0000
# 41 texture coords

o Cylinder042
g Cylinder042
usemtl wire_115115115
s off
f 381/411/201 382/412/201 383/413/201 384/414/201 
f 381/411/201 385/415/201 386/416/201 382/412/201 
f 381/411/201 387/417/201 388/418/201 385/419/201 
f 381/411/201 389/420/201 390/421/201 387/417/201 
f 381/411/201 391/422/201 392/423/201 389/420/201 
f 381/411/201 393/424/201 394/425/201 391/422/201 
f 381/411/201 395/426/201 396/427/201 393/424/201 
f 381/411/201 397/428/201 398/429/201 395/426/201 
f 381/411/201 384/414/201 399/430/201 397/428/201 
f 384/414/202 383/413/203 400/431/203 401/432/202 
f 383/413/203 382/412/204 402/433/204 400/431/203 
f 382/412/204 386/416/205 403/434/205 402/433/204 
f 386/416/205 385/415/206 404/435/206 403/434/205 
f 385/419/206 388/418/207 405/436/207 404/437/206 
f 388/418/207 387/417/208 406/438/208 405/436/207 
f 387/417/208 390/421/209 407/439/209 406/438/208 
f 390/421/209 389/420/210 408/440/210 407/439/209 
f 389/420/210 392/423/211 409/441/211 408/440/210 
f 392/423/211 391/422/212 410/442/212 409/441/211 
f 391/422/212 394/425/213 411/443/213 410/442/212 
f 394/425/213 393/424/214 412/444/214 411/443/213 
f 393/424/214 396/427/215 413/445/215 412/444/214 
f 396/427/215 395/426/216 414/446/216 413/445/215 
f 395/426/216 398/429/217 415/447/217 414/446/216 
f 398/429/217 397/428/218 416/448/218 415/447/217 
f 397/428/218 399/430/219 417/449/219 416/448/218 
f 399/430/219 384/414/202 401/432/202 417/449/219 
f 418/450/220 417/449/220 401/432/220 400/431/220 
f 418/450/220 400/431/220 402/433/220 403/434/220 
f 418/450/220 403/451/220 404/437/220 405/436/220 
f 418/450/220 405/436/220 406/438/220 407/439/220 
f 418/450/220 407/439/220 408/440/220 409/441/220 
f 418/450/220 409/441/220 410/442/220 411/443/220 
f 418/450/220 411/443/220 412/444/220 413/445/220 
f 418/450/220 413/445/220 414/446/220 415/447/220 
f 418/450/220 415/447/220 416/448/220 417/449/220 
# 36 polygons

#
# object Cylinder041
#

v  -24.0499 31.9968 -408.8016
v  -18.5307 37.2902 -411.5132
v  -16.8436 35.1532 -410.7868
v  -16.0257 32.6356 -409.8208
v  -23.6182 39.4680 -411.9369
v  -20.8835 38.7887 -411.9127
v  -28.9077 38.1499 -410.8934
v  -26.4050 39.2461 -411.5829
v  -31.9242 33.9528 -408.8712
v  -30.8245 36.3116 -409.9517
v  -31.2562 28.8404 -406.8164
v  -32.0741 31.3581 -407.7823
v  -27.2163 25.2050 -405.6905
v  -29.5691 26.7035 -406.0899
v  -21.6949 24.7475 -406.0203
v  -24.4816 24.5257 -405.6663
v  -17.2754 27.6821 -407.6515
v  -19.1922 25.8437 -406.7097
v  -16.1757 30.0409 -408.7320
v  -16.7605 35.5195 -409.9024
v  -15.9426 33.0019 -408.9365
v  -18.4475 37.6565 -410.6289
v  -20.8003 39.1550 -411.0284
v  -23.5350 39.8343 -411.0525
v  -26.3218 39.6124 -410.6985
v  -28.8245 38.5162 -410.0091
v  -30.7413 36.6779 -409.0674
v  -31.8410 34.3191 -407.9869
v  -31.9909 31.7244 -406.8980
v  -31.1730 29.2067 -405.9321
v  -29.4860 27.0698 -405.2056
v  -27.1332 25.5713 -404.8062
v  -24.3985 24.8920 -404.7820
v  -21.6117 25.1138 -405.1359
v  -19.1090 26.2100 -405.8254
v  -17.1922 28.0484 -406.7672
v  -16.0925 30.4072 -407.8476
v  -23.9667 32.3631 -407.9172
# 38 vertices

vn 0.0000 -1.0000 -0.0000
vn 1.0000 0.0000 0.0000
vn 0.9397 0.0000 -0.3420
vn 0.7660 0.0000 -0.6428
vn 0.5000 0.0000 -0.8660
vn 0.1736 0.0000 -0.9848
vn -0.1736 0.0000 -0.9848
vn -0.5000 0.0000 -0.8660
vn -0.7660 0.0000 -0.6428
vn -0.9397 0.0000 -0.3420
vn -1.0000 0.0000 -0.0000
vn -0.9397 0.0000 0.3420
vn -0.7660 0.0000 0.6428
vn -0.5000 0.0000 0.8660
vn -0.1736 0.0000 0.9848
vn 0.1736 0.0000 0.9848
vn 0.5000 0.0000 0.8660
vn 0.7660 0.0000 0.6428
vn 0.9397 0.0000 0.3420
vn 0.0000 1.0000 -0.0000
# 20 vertex normals

vt 0.5000 0.0000 0.0000
vt 0.8611 0.0000 0.0000
vt 0.8056 0.0000 0.0000
vt 0.7500 0.0000 0.0000
vt 0.9722 0.0000 0.0000
vt 0.9167 0.0000 0.0000
vt 0.0833 0.0000 0.0000
vt 0.0278 0.0000 0.0000
vt -0.0278 0.0000 0.0000
vt 0.1944 0.0000 0.0000
vt 0.1389 0.0000 0.0000
vt 0.3056 0.0000 0.0000
vt 0.2500 0.0000 0.0000
vt 0.4167 0.0000 0.0000
vt 0.3611 0.0000 0.0000
vt 0.5278 0.0000 0.0000
vt 0.4722 0.0000 0.0000
vt 0.6389 0.0000 0.0000
vt 0.5833 0.0000 0.0000
vt 0.6944 0.0000 0.0000
vt 0.8056 1.0000 0.0000
vt 0.7500 1.0000 0.0000
vt 0.8611 1.0000 0.0000
vt 0.9167 1.0000 0.0000
vt 0.9722 1.0000 0.0000
vt 0.0278 1.0000 0.0000
vt -0.0278 1.0000 0.0000
vt 0.0833 1.0000 0.0000
vt 0.1389 1.0000 0.0000
vt 0.1944 1.0000 0.0000
vt 0.2500 1.0000 0.0000
vt 0.3056 1.0000 0.0000
vt 0.3611 1.0000 0.0000
vt 0.4167 1.0000 0.0000
vt 0.4722 1.0000 0.0000
vt 0.5278 1.0000 0.0000
vt 0.5833 1.0000 0.0000
vt 0.6389 1.0000 0.0000
vt 0.6944 1.0000 0.0000
vt 0.5000 1.0000 0.0000
vt -0.0197 1.0000 0.0000
# 41 texture coords

o Cylinder041
g Cylinder041
usemtl wire_115115115
s off
f 419/452/221 420/453/221 421/454/221 422/455/221 
f 419/452/221 423/456/221 424/457/221 420/453/221 
f 419/452/221 425/458/221 426/459/221 423/460/221 
f 419/452/221 427/461/221 428/462/221 425/458/221 
f 419/452/221 429/463/221 430/464/221 427/461/221 
f 419/452/221 431/465/221 432/466/221 429/463/221 
f 419/452/221 433/467/221 434/468/221 431/465/221 
f 419/452/221 435/469/221 436/470/221 433/467/221 
f 419/452/221 422/455/221 437/471/221 435/469/221 
f 422/455/222 421/454/223 438/472/223 439/473/222 
f 421/454/223 420/453/224 440/474/224 438/472/223 
f 420/453/224 424/457/225 441/475/225 440/474/224 
f 424/457/225 423/456/226 442/476/226 441/475/225 
f 423/460/226 426/459/227 443/477/227 442/478/226 
f 426/459/227 425/458/228 444/479/228 443/477/227 
f 425/458/228 428/462/229 445/480/229 444/479/228 
f 428/462/229 427/461/230 446/481/230 445/480/229 
f 427/461/230 430/464/231 447/482/231 446/481/230 
f 430/464/231 429/463/232 448/483/232 447/482/231 
f 429/463/232 432/466/233 449/484/233 448/483/232 
f 432/466/233 431/465/234 450/485/234 449/484/233 
f 431/465/234 434/468/235 451/486/235 450/485/234 
f 434/468/235 433/467/236 452/487/236 451/486/235 
f 433/467/236 436/470/237 453/488/237 452/487/236 
f 436/470/237 435/469/238 454/489/238 453/488/237 
f 435/469/238 437/471/239 455/490/239 454/489/238 
f 437/471/239 422/455/222 439/473/222 455/490/239 
f 456/491/240 455/490/240 439/473/240 438/472/240 
f 456/491/240 438/472/240 440/474/240 441/475/240 
f 456/491/240 441/492/240 442/478/240 443/477/240 
f 456/491/240 443/477/240 444/479/240 445/480/240 
f 456/491/240 445/480/240 446/481/240 447/482/240 
f 456/491/240 447/482/240 448/483/240 449/484/240 
f 456/491/240 449/484/240 450/485/240 451/486/240 
f 456/491/240 451/486/240 452/487/240 453/488/240 
f 456/491/240 453/488/240 454/489/240 455/490/240 
# 36 polygons

