%YAML 1.1
%TAG !u! tag:unity3d.com,2011:
--- !u!1 &3101133026467100491
GameObject:
  m_ObjectHideFlags: 0
  m_CorrespondingSourceObject: {fileID: 0}
  m_PrefabInstance: {fileID: 0}
  m_PrefabAsset: {fileID: 0}
  serializedVersion: 6
  m_Component:
  - component: {fileID: 3101133026467100490}
  m_Layer: 0
  m_Name: FLOWER
  m_TagString: Untagged
  m_Icon: {fileID: 0}
  m_NavMeshLayer: 0
  m_StaticEditorFlags: 0
  m_IsActive: 1
--- !u!4 &3101133026467100490
Transform:
  m_ObjectHideFlags: 0
  m_CorrespondingSourceObject: {fileID: 0}
  m_PrefabInstance: {fileID: 0}
  m_PrefabAsset: {fileID: 0}
  m_GameObject: {fileID: 3101133026467100491}
  m_LocalRotation: {x: 0, y: 0, z: 0, w: 1}
  m_LocalPosition: {x: 10.71, y: -1, z: 0.19}
  m_LocalScale: {x: 0.5, y: 0.5, z: 0.5}
  m_Children:
  - {fileID: 3101133027926392774}
  m_Father: {fileID: 0}
  m_RootOrder: 0
  m_LocalEulerAnglesHint: {x: 0, y: 0, z: 0}
--- !u!1001 &3101133027926779210
PrefabInstance:
  m_ObjectHideFlags: 0
  serializedVersion: 2
  m_Modification:
    m_TransformParent: {fileID: 3101133026467100490}
    m_Modifications:
    - target: {fileID: 100012, guid: 80fbf0fa201c0154e955a46e82463d12, type: 3}
      propertyPath: m_Name
      value: FLOWER (1)
      objectReference: {fileID: 0}
    - target: {fileID: 400012, guid: 80fbf0fa201c0154e955a46e82463d12, type: 3}
      propertyPath: m_LocalPosition.x
      value: 0
      objectReference: {fileID: 0}
    - target: {fileID: 400012, guid: 80fbf0fa201c0154e955a46e82463d12, type: 3}
      propertyPath: m_LocalPosition.y
      value: 0.20999998
      objectReference: {fileID: 0}
    - target: {fileID: 400012, guid: 80fbf0fa201c0154e955a46e82463d12, type: 3}
      propertyPath: m_LocalPosition.z
      value: 0
      objectReference: {fileID: 0}
    - target: {fileID: 400012, guid: 80fbf0fa201c0154e955a46e82463d12, type: 3}
      propertyPath: m_LocalRotation.x
      value: -0
      objectReference: {fileID: 0}
    - target: {fileID: 400012, guid: 80fbf0fa201c0154e955a46e82463d12, type: 3}
      propertyPath: m_LocalRotation.y
      value: -0
      objectReference: {fileID: 0}
    - target: {fileID: 400012, guid: 80fbf0fa201c0154e955a46e82463d12, type: 3}
      propertyPath: m_LocalRotation.z
      value: -0
      objectReference: {fileID: 0}
    - target: {fileID: 400012, guid: 80fbf0fa201c0154e955a46e82463d12, type: 3}
      propertyPath: m_LocalRotation.w
      value: 1
      objectReference: {fileID: 0}
    - target: {fileID: 400012, guid: 80fbf0fa201c0154e955a46e82463d12, type: 3}
      propertyPath: m_RootOrder
      value: 0
      objectReference: {fileID: 0}
    - target: {fileID: 400012, guid: 80fbf0fa201c0154e955a46e82463d12, type: 3}
      propertyPath: m_LocalEulerAnglesHint.x
      value: 0
      objectReference: {fileID: 0}
    - target: {fileID: 400012, guid: 80fbf0fa201c0154e955a46e82463d12, type: 3}
      propertyPath: m_LocalEulerAnglesHint.y
      value: 0
      objectReference: {fileID: 0}
    - target: {fileID: 400012, guid: 80fbf0fa201c0154e955a46e82463d12, type: 3}
      propertyPath: m_LocalEulerAnglesHint.z
      value: 0
      objectReference: {fileID: 0}
    - target: {fileID: 400012, guid: 80fbf0fa201c0154e955a46e82463d12, type: 3}
      propertyPath: m_LocalScale.x
      value: 0.5
      objectReference: {fileID: 0}
    - target: {fileID: 400012, guid: 80fbf0fa201c0154e955a46e82463d12, type: 3}
      propertyPath: m_LocalScale.y
      value: 0.5
      objectReference: {fileID: 0}
    - target: {fileID: 400012, guid: 80fbf0fa201c0154e955a46e82463d12, type: 3}
      propertyPath: m_LocalScale.z
      value: 0.5
      objectReference: {fileID: 0}
    - target: {fileID: 2300000, guid: 80fbf0fa201c0154e955a46e82463d12, type: 3}
      propertyPath: m_Materials.Array.data[0]
      value: 
      objectReference: {fileID: 2100000, guid: 73e2384387cffbb4aa03c7993987052a, type: 2}
    - target: {fileID: 2300004, guid: 80fbf0fa201c0154e955a46e82463d12, type: 3}
      propertyPath: m_Materials.Array.data[0]
      value: 
      objectReference: {fileID: 2100000, guid: cbbe5d0c3e7a2374cabe6f9aa8332fef, type: 2}
    - target: {fileID: 2300006, guid: 80fbf0fa201c0154e955a46e82463d12, type: 3}
      propertyPath: m_Materials.Array.data[0]
      value: 
      objectReference: {fileID: 2100000, guid: ac4a2094d915bd94aa8ecc1dbad2ad9f, type: 2}
    - target: {fileID: 2300008, guid: 80fbf0fa201c0154e955a46e82463d12, type: 3}
      propertyPath: m_Materials.Array.data[0]
      value: 
      objectReference: {fileID: 2100000, guid: bb9b50b786a38254d8c73d2feedcb319, type: 2}
    - target: {fileID: 2300010, guid: 80fbf0fa201c0154e955a46e82463d12, type: 3}
      propertyPath: m_Materials.Array.data[0]
      value: 
      objectReference: {fileID: 2100000, guid: e3335d8166799f142b018cf83c6b0be7, type: 2}
    m_RemovedComponents: []
  m_SourcePrefab: {fileID: 100100000, guid: 80fbf0fa201c0154e955a46e82463d12, type: 3}
--- !u!4 &3101133027926392774 stripped
Transform:
  m_CorrespondingSourceObject: {fileID: 400012, guid: 80fbf0fa201c0154e955a46e82463d12,
    type: 3}
  m_PrefabInstance: {fileID: 3101133027926779210}
  m_PrefabAsset: {fileID: 0}
