%YAML 1.1
%TAG !u! tag:unity3d.com,2011:
--- !u!1 &170111206577377664
GameObject:
  m_ObjectHideFlags: 0
  m_CorrespondingSourceObject: {fileID: 0}
  m_PrefabInstance: {fileID: 0}
  m_PrefabAsset: {fileID: 0}
  serializedVersion: 6
  m_Component:
  - component: {fileID: 170111206577377665}
  m_Layer: 0
  m_Name: GT
  m_TagString: Untagged
  m_Icon: {fileID: 0}
  m_NavMeshLayer: 0
  m_StaticEditorFlags: 0
  m_IsActive: 1
--- !u!4 &170111206577377665
Transform:
  m_ObjectHideFlags: 0
  m_CorrespondingSourceObject: {fileID: 0}
  m_PrefabInstance: {fileID: 0}
  m_PrefabAsset: {fileID: 0}
  m_GameObject: {fileID: 170111206577377664}
  m_LocalRotation: {x: 0, y: 0, z: 0, w: 1}
  m_LocalPosition: {x: 22.09, y: -1, z: 2.47}
  m_LocalScale: {x: 1, y: 1, z: 1}
  m_Children:
  - {fileID: 170111207161700996}
  m_Father: {fileID: 0}
  m_RootOrder: 0
  m_LocalEulerAnglesHint: {x: 0, y: 0, z: 0}
--- !u!1001 &170111207161313280
PrefabInstance:
  m_ObjectHideFlags: 0
  serializedVersion: 2
  m_Modification:
    m_TransformParent: {fileID: 170111206577377665}
    m_Modifications:
    - target: {fileID: 100004, guid: f2d33f77d9052494891bbf0082e8822f, type: 3}
      propertyPath: m_Name
      value: GT (1)
      objectReference: {fileID: 0}
    - target: {fileID: 400004, guid: f2d33f77d9052494891bbf0082e8822f, type: 3}
      propertyPath: m_LocalPosition.x
      value: -8.03
      objectReference: {fileID: 0}
    - target: {fileID: 400004, guid: f2d33f77d9052494891bbf0082e8822f, type: 3}
      propertyPath: m_LocalPosition.y
      value: 1.17
      objectReference: {fileID: 0}
    - target: {fileID: 400004, guid: f2d33f77d9052494891bbf0082e8822f, type: 3}
      propertyPath: m_LocalPosition.z
      value: -3.69
      objectReference: {fileID: 0}
    - target: {fileID: 400004, guid: f2d33f77d9052494891bbf0082e8822f, type: 3}
      propertyPath: m_LocalRotation.x
      value: -0
      objectReference: {fileID: 0}
    - target: {fileID: 400004, guid: f2d33f77d9052494891bbf0082e8822f, type: 3}
      propertyPath: m_LocalRotation.y
      value: -0
      objectReference: {fileID: 0}
    - target: {fileID: 400004, guid: f2d33f77d9052494891bbf0082e8822f, type: 3}
      propertyPath: m_LocalRotation.z
      value: -0
      objectReference: {fileID: 0}
    - target: {fileID: 400004, guid: f2d33f77d9052494891bbf0082e8822f, type: 3}
      propertyPath: m_LocalRotation.w
      value: 1
      objectReference: {fileID: 0}
    - target: {fileID: 400004, guid: f2d33f77d9052494891bbf0082e8822f, type: 3}
      propertyPath: m_RootOrder
      value: 0
      objectReference: {fileID: 0}
    - target: {fileID: 400004, guid: f2d33f77d9052494891bbf0082e8822f, type: 3}
      propertyPath: m_LocalEulerAnglesHint.x
      value: 0
      objectReference: {fileID: 0}
    - target: {fileID: 400004, guid: f2d33f77d9052494891bbf0082e8822f, type: 3}
      propertyPath: m_LocalEulerAnglesHint.y
      value: 0
      objectReference: {fileID: 0}
    - target: {fileID: 400004, guid: f2d33f77d9052494891bbf0082e8822f, type: 3}
      propertyPath: m_LocalEulerAnglesHint.z
      value: 0
      objectReference: {fileID: 0}
    - target: {fileID: 400004, guid: f2d33f77d9052494891bbf0082e8822f, type: 3}
      propertyPath: m_LocalScale.x
      value: 50
      objectReference: {fileID: 0}
    - target: {fileID: 400004, guid: f2d33f77d9052494891bbf0082e8822f, type: 3}
      propertyPath: m_LocalScale.y
      value: 50
      objectReference: {fileID: 0}
    - target: {fileID: 400004, guid: f2d33f77d9052494891bbf0082e8822f, type: 3}
      propertyPath: m_LocalScale.z
      value: 50
      objectReference: {fileID: 0}
    - target: {fileID: 2300000, guid: f2d33f77d9052494891bbf0082e8822f, type: 3}
      propertyPath: m_Materials.Array.data[0]
      value: 
      objectReference: {fileID: 2100000, guid: efb6114e21a2f0544bdbea5bb12595de, type: 2}
    - target: {fileID: 2300002, guid: f2d33f77d9052494891bbf0082e8822f, type: 3}
      propertyPath: m_Materials.Array.data[0]
      value: 
      objectReference: {fileID: 2100000, guid: 51e5748ad894e5747809dcc1f6f30f73, type: 2}
    - target: {fileID: 2300004, guid: f2d33f77d9052494891bbf0082e8822f, type: 3}
      propertyPath: m_Materials.Array.data[0]
      value: 
      objectReference: {fileID: 2100000, guid: f903aa9c332bce441bd7a3dad95a38dc, type: 2}
    - target: {fileID: 2300006, guid: f2d33f77d9052494891bbf0082e8822f, type: 3}
      propertyPath: m_Materials.Array.data[0]
      value: 
      objectReference: {fileID: 2100000, guid: e6a4fcbb5cb19e6459af06bf8958ce60, type: 2}
    m_RemovedComponents: []
  m_SourcePrefab: {fileID: 100100000, guid: f2d33f77d9052494891bbf0082e8822f, type: 3}
--- !u!4 &170111207161700996 stripped
Transform:
  m_CorrespondingSourceObject: {fileID: 400004, guid: f2d33f77d9052494891bbf0082e8822f,
    type: 3}
  m_PrefabInstance: {fileID: 170111207161313280}
  m_PrefabAsset: {fileID: 0}
