%YAML 1.1
%TAG !u! tag:unity3d.com,2011:
--- !u!1 &3043358413327681534
GameObject:
  m_ObjectHideFlags: 0
  m_CorrespondingSourceObject: {fileID: 0}
  m_PrefabInstance: {fileID: 0}
  m_PrefabAsset: {fileID: 0}
  serializedVersion: 6
  m_Component:
  - component: {fileID: 3043358413327681521}
  m_Layer: 0
  m_Name: TF2
  m_TagString: Untagged
  m_Icon: {fileID: 0}
  m_NavMeshLayer: 0
  m_StaticEditorFlags: 0
  m_IsActive: 1
--- !u!4 &3043358413327681521
Transform:
  m_ObjectHideFlags: 0
  m_CorrespondingSourceObject: {fileID: 0}
  m_PrefabInstance: {fileID: 0}
  m_PrefabAsset: {fileID: 0}
  m_GameObject: {fileID: 3043358413327681534}
  m_LocalRotation: {x: -0, y: -0, z: -0, w: 1}
  m_LocalPosition: {x: 18.92, y: -1, z: 2.48}
  m_LocalScale: {x: 0.2, y: 0.2, z: 0.2}
  m_Children:
  - {fileID: 3043358412493096303}
  m_Father: {fileID: 0}
  m_RootOrder: 0
  m_LocalEulerAnglesHint: {x: 0, y: 0, z: 0}
--- !u!1001 &3043358412493496313
PrefabInstance:
  m_ObjectHideFlags: 0
  serializedVersion: 2
  m_Modification:
    m_TransformParent: {fileID: 3043358413327681521}
    m_Modifications:
    - target: {fileID: 100022, guid: 3dba403fb6a597344ab450bbcab3f513, type: 3}
      propertyPath: m_Name
      value: TF2 (1)
      objectReference: {fileID: 0}
    - target: {fileID: 400022, guid: 3dba403fb6a597344ab450bbcab3f513, type: 3}
      propertyPath: m_LocalPosition.x
      value: -3.48
      objectReference: {fileID: 0}
    - target: {fileID: 400022, guid: 3dba403fb6a597344ab450bbcab3f513, type: 3}
      propertyPath: m_LocalPosition.y
      value: 0.947
      objectReference: {fileID: 0}
    - target: {fileID: 400022, guid: 3dba403fb6a597344ab450bbcab3f513, type: 3}
      propertyPath: m_LocalPosition.z
      value: -0.16
      objectReference: {fileID: 0}
    - target: {fileID: 400022, guid: 3dba403fb6a597344ab450bbcab3f513, type: 3}
      propertyPath: m_LocalRotation.x
      value: -0
      objectReference: {fileID: 0}
    - target: {fileID: 400022, guid: 3dba403fb6a597344ab450bbcab3f513, type: 3}
      propertyPath: m_LocalRotation.y
      value: -0
      objectReference: {fileID: 0}
    - target: {fileID: 400022, guid: 3dba403fb6a597344ab450bbcab3f513, type: 3}
      propertyPath: m_LocalRotation.z
      value: -0
      objectReference: {fileID: 0}
    - target: {fileID: 400022, guid: 3dba403fb6a597344ab450bbcab3f513, type: 3}
      propertyPath: m_LocalRotation.w
      value: 1
      objectReference: {fileID: 0}
    - target: {fileID: 400022, guid: 3dba403fb6a597344ab450bbcab3f513, type: 3}
      propertyPath: m_RootOrder
      value: 0
      objectReference: {fileID: 0}
    - target: {fileID: 400022, guid: 3dba403fb6a597344ab450bbcab3f513, type: 3}
      propertyPath: m_LocalEulerAnglesHint.x
      value: 0
      objectReference: {fileID: 0}
    - target: {fileID: 400022, guid: 3dba403fb6a597344ab450bbcab3f513, type: 3}
      propertyPath: m_LocalEulerAnglesHint.y
      value: 0
      objectReference: {fileID: 0}
    - target: {fileID: 400022, guid: 3dba403fb6a597344ab450bbcab3f513, type: 3}
      propertyPath: m_LocalEulerAnglesHint.z
      value: 0
      objectReference: {fileID: 0}
    - target: {fileID: 2300000, guid: 3dba403fb6a597344ab450bbcab3f513, type: 3}
      propertyPath: m_Materials.Array.data[0]
      value: 
      objectReference: {fileID: 2100000, guid: 734d7d192d1769e4d89eb47cbf193a56, type: 2}
    - target: {fileID: 2300002, guid: 3dba403fb6a597344ab450bbcab3f513, type: 3}
      propertyPath: m_Materials.Array.data[0]
      value: 
      objectReference: {fileID: 2100000, guid: 3cb3bc35f3a5dd14eb3f6f366ce16ad0, type: 2}
    - target: {fileID: 2300004, guid: 3dba403fb6a597344ab450bbcab3f513, type: 3}
      propertyPath: m_Materials.Array.data[0]
      value: 
      objectReference: {fileID: 2100000, guid: e322a7c9eee1dbc4b9d702330d4c0fd1, type: 2}
    - target: {fileID: 2300006, guid: 3dba403fb6a597344ab450bbcab3f513, type: 3}
      propertyPath: m_Materials.Array.data[0]
      value: 
      objectReference: {fileID: 2100000, guid: b36065643b22f034bb2fa73e52177bd9, type: 2}
    - target: {fileID: 2300008, guid: 3dba403fb6a597344ab450bbcab3f513, type: 3}
      propertyPath: m_Materials.Array.data[0]
      value: 
      objectReference: {fileID: 2100000, guid: 734d7d192d1769e4d89eb47cbf193a56, type: 2}
    - target: {fileID: 2300010, guid: 3dba403fb6a597344ab450bbcab3f513, type: 3}
      propertyPath: m_Materials.Array.data[0]
      value: 
      objectReference: {fileID: 2100000, guid: 3cb3bc35f3a5dd14eb3f6f366ce16ad0, type: 2}
    - target: {fileID: 2300012, guid: 3dba403fb6a597344ab450bbcab3f513, type: 3}
      propertyPath: m_Materials.Array.data[0]
      value: 
      objectReference: {fileID: 2100000, guid: 3cb3bc35f3a5dd14eb3f6f366ce16ad0, type: 2}
    - target: {fileID: 2300014, guid: 3dba403fb6a597344ab450bbcab3f513, type: 3}
      propertyPath: m_Materials.Array.data[0]
      value: 
      objectReference: {fileID: 2100000, guid: 03b698a1bf368fa40a44d648e622923d, type: 2}
    - target: {fileID: 2300016, guid: 3dba403fb6a597344ab450bbcab3f513, type: 3}
      propertyPath: m_Materials.Array.data[0]
      value: 
      objectReference: {fileID: 2100000, guid: 3cb3bc35f3a5dd14eb3f6f366ce16ad0, type: 2}
    - target: {fileID: 2300018, guid: 3dba403fb6a597344ab450bbcab3f513, type: 3}
      propertyPath: m_Materials.Array.data[0]
      value: 
      objectReference: {fileID: 2100000, guid: 797f57fe0d5d26349bb364db2b541c41, type: 2}
    - target: {fileID: 2300020, guid: 3dba403fb6a597344ab450bbcab3f513, type: 3}
      propertyPath: m_Materials.Array.data[0]
      value: 
      objectReference: {fileID: 2100000, guid: ba24e136fbe16f24ca8fac8de66dfc21, type: 2}
    - target: {fileID: 2300022, guid: 3dba403fb6a597344ab450bbcab3f513, type: 3}
      propertyPath: m_Materials.Array.data[0]
      value: 
      objectReference: {fileID: 2100000, guid: bbb9c2e77330e0040bcb3e7e657006a5, type: 2}
    - target: {fileID: 2300024, guid: 3dba403fb6a597344ab450bbcab3f513, type: 3}
      propertyPath: m_Materials.Array.data[0]
      value: 
      objectReference: {fileID: 2100000, guid: bbb9c2e77330e0040bcb3e7e657006a5, type: 2}
    m_RemovedComponents: []
  m_SourcePrefab: {fileID: 100100000, guid: 3dba403fb6a597344ab450bbcab3f513, type: 3}
--- !u!4 &3043358412493096303 stripped
Transform:
  m_CorrespondingSourceObject: {fileID: 400022, guid: 3dba403fb6a597344ab450bbcab3f513,
    type: 3}
  m_PrefabInstance: {fileID: 3043358412493496313}
  m_PrefabAsset: {fileID: 0}
